Division,WeightClassKg,Place,Name,Team,BodyweightKg,Best3SquatKg,Best3BenchKg,Best3DeadliftKg,TotalKg,Equipment,Event,Sex
Boys,51.71,1,Jason Ayers,Lampasas,51.62,136.08,74.84,167.83,378.75,Single-ply,SBD,M
Boys,51.71,2,Preston Fox,Lampasas,47.81,90.72,56.7,102.06,249.48,Single-ply,SBD,M
Boys,55.79,1,Jake Burkhalter,Burnet,54.43,97.52,63.5,124.74,285.76,Single-ply,SBD,M
Boys,55.79,2,Jess Luther,Burnet,55.79,90.72,49.9,106.59,247.21,Single-ply,SBD,M
Boys,55.79,DQ,Carson Pratt,Marble Falls,55.25,,,,,Single-ply,SBD,M
Boys,59.87,1,Dalton Dewveall,Llano,59.78,172.37,92.99,179.17,444.52,Single-ply,SBD,M
Boys,59.87,2,Anthony Montes,Lampasas,58.69,142.88,97.52,154.22,394.63,Single-ply,SBD,M
Boys,59.87,3,Dakota Cavozos,Lampasas,59.51,136.08,95.25,147.42,378.75,Single-ply,SBD,M
Boys,59.87,4,Collin McBurnett,Burnet,59.87,129.27,61.23,158.76,349.27,Single-ply,SBD,M
Boys,59.87,5,Cotton Woodum,Burnet,59.87,129.27,79.38,129.27,337.93,Single-ply,SBD,M
Boys,59.87,6,Luis Rodriguez #10,Marble Falls,56.25,111.13,43.09,72.57,226.8,Single-ply,SBD,M
Boys,67.13,1,Brent Greenwood,Llano,65.68,174.63,99.79,158.76,433.18,Single-ply,SBD,M
Boys,67.13,2,Dylan Bryant,Brady,65.77,138.35,79.38,138.35,356.07,Single-ply,SBD,M
Boys,67.13,3,Quint Pincelli,Llano,59.96,127.01,74.84,142.88,344.73,Single-ply,SBD,M
Boys,67.13,4,Eloy Castillo,Brownwood,66.04,124.74,77.11,142.88,344.73,Single-ply,SBD,M
Boys,67.13,5,Kevin Wylie,Lampasas,66.22,113.4,74.84,147.42,335.66,Single-ply,SBD,M
Boys,67.13,6,Alvaro Villareal,Brownwood,62.87,124.74,70.31,136.08,331.12,Single-ply,SBD,M
Boys,67.13,7,Chayton Gray,Brady,60.06,97.52,58.97,127.01,283.5,Single-ply,SBD,M
Boys,67.13,DQ,Ethan Oakes,Lampasas,64.32,129.27,,,,Single-ply,SBD,M
Boys,74.84,1,Xavier Armenta,Brownwood,74.21,142.88,99.79,154.22,396.89,Single-ply,SBD,M
Boys,74.84,2,Vincent Leon,Lampasas,74.84,142.88,72.57,165.56,381.02,Single-ply,SBD,M
Boys,74.84,3,Clayton Bertrand,Brownwood,69.85,136.08,81.65,145.15,362.87,Single-ply,SBD,M
Boys,74.84,4,Michael Lindley,Burnet,69.85,124.74,88.45,142.88,356.07,Single-ply,SBD,M
Boys,74.84,5,Bailey Leach,Llano,71.12,136.08,72.57,142.88,351.53,Single-ply,SBD,M
Boys,74.84,6,Damien Cunningham,Marble Falls,69.04,90.72,61.23,117.93,269.89,Single-ply,SBD,M
Boys,74.84,7,Alex Torres #2,Burnet,74.84,74.84,65.77,127.01,267.62,Single-ply,SBD,M
Boys,74.84,DQ,Ethan Morsch,Lampasas,68.22,151.95,,,,Single-ply,SBD,M
Boys,82.1,1,Christian Rodriquez,Llano,74.93,222.26,120.2,204.12,546.58,Single-ply,SBD,M
Boys,82.1,2,Jace Hankins,Lampasas,82.01,201.85,120.2,213.19,535.24,Single-ply,SBD,M
Boys,82.1,3,Mason Greenwood,Llano,75.66,201.85,120.2,206.38,528.44,Single-ply,SBD,M
Boys,82.1,4,Michael Nguyen,Lampasas,78.65,158.76,92.99,172.37,424.11,Single-ply,SBD,M
Boys,82.1,5,Aubrey Bucholz,Brady,75.48,142.88,102.06,167.83,412.77,Single-ply,SBD,M
Boys,82.1,6,Nolan Keller,Llano,75.84,167.83,90.72,145.15,403.7,Single-ply,SBD,M
Boys,82.1,7,Gabe Torres,Marble Falls,76.02,151.95,104.33,142.88,399.16,Single-ply,SBD,M
Boys,82.1,8,Coleman Posey,Burnet,76.66,151.95,88.45,158.76,399.16,Single-ply,SBD,M
Boys,82.1,9,Dakotta Pratt,Burnet,77.11,142.88,88.45,145.15,376.48,Single-ply,SBD,M
Boys,82.1,10,Patrick Nash,Brownwood,76.48,136.08,92.99,136.08,365.14,Single-ply,SBD,M
Boys,82.1,11,Josh Petty,Llano,77.66,115.67,72.57,129.27,317.51,Single-ply,SBD,M
Boys,82.1,12,Jason Stark,Llano,75.39,108.86,70.31,131.54,310.71,Single-ply,SBD,M
Boys,82.1,13,Marc Barnett,Burnet,77.11,90.72,52.16,92.99,235.87,Single-ply,SBD,M
Boys,82.1,DQ,Jeffrey Atkinson,Burnet,82.1,133.81,,,,Single-ply,SBD,M
Boys,89.81,1,Austin Davis,Burnet,87.54,195.04,102.06,199.58,496.68,Single-ply,SBD,M
Boys,89.81,2,Colby Edwards,Burnet,86.18,170.1,97.52,183.7,451.32,Single-ply,SBD,M
Boys,89.81,3,Gavin Jefferson,Brownwood,85.37,145.15,97.52,181.44,424.11,Single-ply,SBD,M
Boys,89.81,4,Rowdy Holmes,Burnet,86.18,147.42,88.45,156.49,392.36,Single-ply,SBD,M
Boys,89.81,5,Hayden Tunnell,Brownwood,85.28,142.88,83.91,154.22,381.02,Single-ply,SBD,M
Boys,99.79,1,Weston Bauer,Brady,97.34,174.63,151.95,226.8,553.38,Single-ply,SBD,M
Boys,99.79,2,Preston Reeves,Burnet,95.71,222.26,115.67,210.92,548.85,Single-ply,SBD,M
Boys,99.79,3,Noah Von Benzerath,Lampasas,96.43,204.12,124.74,217.72,546.58,Single-ply,SBD,M
Boys,99.79,4,Roger Craig,Burnet,96.62,158.76,104.33,181.44,444.52,Single-ply,SBD,M
Boys,99.79,5,Daniel Sparks,Marble Falls,90.17,165.56,88.45,181.44,435.45,Single-ply,SBD,M
Boys,99.79,6,Frankie Gutierez,Burnet,98.43,170.1,79.38,181.44,430.91,Single-ply,SBD,M
Boys,99.79,7,Jordon Monroy,Llano,96.89,154.22,117.93,149.69,421.84,Single-ply,SBD,M
Boys,99.79,8,Jeremy Rodgers,Lampasas,93.89,138.35,77.11,174.63,390.09,Single-ply,SBD,M
Boys,99.79,9,Tyler Lindell,Llano,93.89,113.4,83.91,136.08,333.39,Single-ply,SBD,M
Boys,99.79,10,Caden Carrizales,Brady,90.26,99.79,79.38,90.72,269.89,Single-ply,SBD,M
Boys,99.79,DQ,Michael Rodriguez #5,Burnet,99.79,158.76,,,,Single-ply,SBD,M
Boys,99.79,DQ,John Winn,Marble Falls,97.61,,,,,Single-ply,SBD,M
Boys,109.77,1,Dakoda Trull,Llano,107.14,226.8,120.2,204.12,551.11,Single-ply,SBD,M
Boys,109.77,2,Eric Yescas,Lampasas,108.77,204.12,120.2,179.17,503.49,Single-ply,SBD,M
Boys,109.77,3,Jaxon Tucker,Brady,106.14,158.76,108.86,181.44,449.06,Single-ply,SBD,M
Boys,109.77,4,Luke Williams #3,Llano,107.14,142.88,90.72,142.88,376.48,Single-ply,SBD,M
Boys,109.77,5,Jacob Bernal,Burnet,109.77,113.4,79.38,115.67,308.44,Single-ply,SBD,M
Boys,109.77,DQ,Zach Hudgins,Burnet,107.05,,,,,Single-ply,SBD,M
Boys,109.77,DQ,Oscar De La Hoya,Marble Falls,104.6,204.12,,,,Single-ply,SBD,M
Boys,124.74,1,Hayden Day,Brownwood,123.56,249.48,142.88,235.87,628.23,Single-ply,SBD,M
Boys,124.74,2,Chris Rangel,Brownwood,111.49,201.85,99.79,179.17,480.81,Single-ply,SBD,M
Boys,124.74,3,Shawn Uvalle,Lampasas,120.47,181.44,108.86,176.9,467.2,Single-ply,SBD,M
Boys,124.74,4,Jacob Scott,Burnet,114.31,167.83,106.59,181.44,455.86,Single-ply,SBD,M
Boys,124.74,5,Aaron Kohutek,Marble Falls,123.83,154.22,102.06,140.61,396.89,Single-ply,SBD,M
Boys,124.74,6,Brandon Schwausch,Burnet,112.94,83.91,65.77,99.79,249.48,Single-ply,SBD,M
Boys,124.74,DQ,Genevo Arreguin,Marble Falls,115.48,145.15,,,,Single-ply,SBD,M
Boys,124.74+,1,Chris Nix,Lampasas,132.27,183.7,136.08,215.46,535.24,Single-ply,SBD,M
Boys,124.74+,2,Colton Center,Llano,136.71,195.04,120.2,204.12,519.36,Single-ply,SBD,M
Boys,124.74+,3,Jemal Alexander,Burnet,126.1,192.78,104.33,181.44,478.54,Single-ply,SBD,M
Boys,124.74+,4,Wesley Moyar,Marble Falls,128.64,156.49,120.2,172.37,449.06,Single-ply,SBD,M
Boys,,NS,Alan McMeans,Burnet,,,,,,Single-ply,SBD,M
Boys,,NS,Ryan Jackson,Burnet,,,,,,Single-ply,SBD,M
