Place,Name,Country,State,WeightClassKg,BodyweightKg,BirthDate,Age,Squat1Kg,Squat2Kg,Squat3Kg,Best3SquatKg,Bench1Kg,Bench2Kg,Bench3Kg,Best3BenchKg,Deadlift1Kg,Deadlift2Kg,Deadlift3Kg,Best3DeadliftKg,TotalKg,Squat4Kg,Bench4Kg,Deadlift4Kg,Event,Equipment,Sex,Division,Tested
1,Kayla Smith,,GA,48,45.6,,23,70,75,80,80,50,52.5,-55,52.5,107.5,115,117.5,117.5,250,,,,SBD,Raw,F,Juniors 20-23,Yes
1,Andrea Armstrong,,AL,52,51.5,,19,107.5,112.5,120,120,72.5,80,-85,80,150,157.5,162.5,162.5,362.5,,,,SBD,Raw,F,Juniors 15-19,Yes
2,Holli Carden,,FL,52,52,,17,80,85,-92.5,85,57.5,60.5,65,65,102.5,107.5,-115,107.5,257.5,,,,SBD,Raw,F,Juniors 15-19,Yes
1,Briana Negron,,FL,52,51.9,,22,107.5,115,-122.5,115,70,-75,-75,70,152.5,-160,-160,152.5,337.5,,,,SBD,Raw,F,Juniors 20-23,Yes
G,Lorin Ames,,NC,56,52.8,,14,62.5,67.5,70,70,40,42.5,-47.5,42.5,67.5,72.5,-80,72.5,185,,,,SBD,Raw,F,Juniors 13-15,Yes
1,Sydney Farris,,AL,56,52.5,,19,90,-97.5,105,105,40,45,-50,45,95,-105,-105,95,245,,,,SBD,Raw,F,Juniors 15-19,Yes
2,Gabrielle Gupta,,VA,56,52.8,,19,67.5,72.5,-75,72.5,42.5,45,-50,45,90,92.5,-95,92.5,210,,,,SBD,Raw,F,Juniors 15-19,Yes
1,Zoe Santos,,VA,60,58.6,,17,82.5,85,-90,85,42.5,45,-47.5,45,105,110,-120,110,240,,,,SBD,Raw,F,Juniors 15-19,Yes
1,Lucy Somervill,,VA,60,57,,20,132.5,-137.5,-137.5,132.5,67.5,70,-75,70,145,150,-157.5,150,352.5,,,,SBD,Raw,F,Juniors 20-23,Yes
1,Emma Barnes #2,,VA,67.5,66.6,,16,80,85,-87.5,85,47.5,-50,-50,47.5,117.5,122.5,130,130,262.5,,,,SBD,Raw,F,Juniors 15-19,Yes
2,Ragan Maynard,,VA,67.5,64.7,,17,82.5,87.5,-92.5,87.5,42.5,45,-47.5,45,115,120,127.5,127.5,260,,,,SBD,Raw,F,Juniors 15-19,Yes
1,Hannah Ivester,,VA,67.5,66.3,,23,132.5,142.5,150,150,67.5,72.5,-77.5,72.5,160,170,177.5,177.5,400,,,,SBD,Raw,F,Juniors 20-23,Yes
2,Sydney Panetta,,GA,67.5,66,,21,130,-145,-145,130,85,90,-95,90,127.5,137.5,-145,137.5,357.5,,,,SBD,Raw,F,Juniors 20-23,Yes
1,Whitney Farrell,,VA,90,88.1,,18,122.5,130,-137.5,130,57.5,62.5,-67.5,62.5,145,152.5,160,160,352.5,,,162.5,SBD,Raw,F,Juniors 15-19,Yes
1,Taylor Castille,,LA,90+,156.2,,18,182.5,-195,200,200,90,97.5,-105,97.5,182.5,195,205,205,502.5,,,,SBD,Raw,F,Juniors 15-19,Yes
2,Marissa Overstreet,,AL,90+,159.3,,16,-125,135,142.5,142.5,52.5,62.5,65,65,127.5,150,157.5,157.5,365,,,,SBD,Raw,F,Juniors 15-19,Yes
3,Mallory Hutchison,,FL,90+,97.5,,18,95,107.5,120,120,60,67.5,-72.5,67.5,140,152.5,-160,152.5,340,,,,SBD,Raw,F,Juniors 15-19,Yes
1,Rebecca Green,,MO,90+,109.8,,23,142.5,152.5,157.5,157.5,70,77.5,-80,77.5,127.5,135,137.5,137.5,372.5,,,,SBD,Raw,F,Juniors 20-23,Yes
1,Kayla Smith,,GA,48,45.6,,23,70,75,80,80,50,52.5,-55,52.5,107.5,115,117.5,117.5,250,,,,SBD,Raw,F,Open,Yes
2,Joni Craft,,AL,48,46.6,,43,72.5,75,-77.5,75,50,52.5,-55,52.5,-92.5,92.5,-100,92.5,220,,,,SBD,Raw,F,Open,Yes
1,Andrea Armstrong,,AL,52,51.5,,19,107.5,112.5,120,120,72.5,80,-85,80,150,157.5,162.5,162.5,362.5,,,,SBD,Raw,F,Open,Yes
2,Briana Negron,,FL,52,51.9,,22,107.5,115,-122.5,115,70,-75,-75,70,152.5,-160,-160,152.5,337.5,,,,SBD,Raw,F,Open,Yes
3,Margie Haddon,,TX,52,51.4,,59,85,92,93.5,93.5,51,-52,52,52,110.5,114.5,115.5,115.5,261,97.5,53,117.5,SBD,Raw,F,Open,Yes
1,Casey Hill #1,,PA,56,54.9,,30,95,105,115,115,-87.5,87.5,92.5,92.5,130,-142.5,150,150,357.5,,,,SBD,Raw,F,Open,Yes
2,Amberly Kuhlmann,,AL,56,55.8,,36,-120,125,127.5,127.5,60,65,-67.5,65,150,-162.5,-162.5,150,342.5,,,,SBD,Raw,F,Open,Yes
3,Kristin Brown,,AL,56,55.6,,33,95,-100,100,100,65,67.5,70,70,110,120,127.5,127.5,297.5,,,,SBD,Raw,F,Open,Yes
4,Patricia Duboise,,GA,56,54.7,,54,77.5,-85,85,85,57.5,60,62.5,62.5,125,132.5,-137.5,132.5,280,,,,SBD,Raw,F,Open,Yes
5,Sydney Farris,,AL,56,52.5,,19,90,-97.5,105,105,40,45,-50,45,95,-105,-105,95,245,,,,SBD,Raw,F,Open,Yes
6,Camille Manuel,,LA,56,55.5,,32,87.5,92.5,-97.5,92.5,37.5,40,42.5,42.5,-100,105,110,110,245,,,,SBD,Raw,F,Open,Yes
1,Sarah Jo Paxton,,UT,60,59.3,,29,162.5,172.5,-177.5,172.5,80,85,-87.5,85,167.5,175,-182.5,175,432.5,,,,SBD,Raw,F,Open,Yes
2,Elizabeth Spitdowski,,GA,60,59.6,,36,145,-152.5,-152.5,145,82.5,-87.5,-87.5,82.5,150,155,-157.5,155,382.5,,,,SBD,Raw,F,Open,Yes
3,Lucy Somervill,,VA,60,57,,20,132.5,-137.5,-137.5,132.5,67.5,70,-75,70,145,150,-157.5,150,352.5,,,,SBD,Raw,F,Open,Yes
4,Tiffany Webster,,AL,60,59,,39,85,95,-97.5,95,45,50,-52.5,50,105,110,115,115,260,,,,SBD,Raw,F,Open,Yes
1,Olivia Crusoe,,WA,67.5,67.2,,28,-165,165,170,170,77.5,82.5,85,85,170,177.5,-180,177.5,432.5,,,,SBD,Raw,F,Open,Yes
2,Emily Lilly,,NC,67.5,66.8,,42,-147.5,147.5,155,155,100,-105,-105,100,145,150,155,155,410,,,,SBD,Raw,F,Open,Yes
3,Hannah Ivester,,VA,67.5,66.3,,23,132.5,142.5,150,150,67.5,72.5,-77.5,72.5,160,170,177.5,177.5,400,,,,SBD,Raw,F,Open,Yes
4,Brandie Christian,,AL,67.5,65.7,,39,137.5,145,-150,145,75,80,-85,80,-165,165,-170,165,390,,,,SBD,Raw,F,Open,Yes
5,Quayla Hardwick,,AL,67.5,67,,26,132.5,145,152.5,152.5,67.5,-72.5,72.5,72.5,142.5,152.5,165,165,390,,,,SBD,Raw,F,Open,Yes
6,Erin Schaefer,,LA,67.5,66.2,,25,135,142.5,147.5,147.5,60,62.5,65,65,155,165,-175,165,377.5,,,,SBD,Raw,F,Open,Yes
7,Sara Frankovich-Hannie,,LA,67.5,66.2,,36,125,130,135,135,67.5,72.5,-75,72.5,155,162.5,170,170,377.5,,,,SBD,Raw,F,Open,Yes
8,Amanda Pate,,AL,67.5,64.6,,35,135,-145,-145,135,62.5,-70,-70,62.5,142.5,-152.5,152.5,152.5,350,,,,SBD,Raw,F,Open,Yes
9,Heidi Dehnel,,AL,67.5,64.9,,40,115,120,122.5,122.5,67.5,72.5,-77.5,72.5,145,-157.5,-157.5,145,340,,,,SBD,Raw,F,Open,Yes
10,Kelly Findlay,,VA,67.5,66.2,,32,102.5,110,-115,110,62.5,67.5,-70,67.5,145,155,-165,155,332.5,,,,SBD,Raw,F,Open,Yes
11,Hannah Griffin,,AL,67.5,62.3,,28,-112.5,117.5,122.5,122.5,57.5,60,-62.5,60,117.5,127.5,137.5,137.5,320,,,,SBD,Raw,F,Open,Yes
1,Ashley Wallace,,GA,75,73.9,,33,120,127.5,-145,127.5,82.5,-87.5,-87.5,82.5,160,-170,170,170,380,,,,SBD,Raw,F,Open,Yes
2,Haleigh Luker,,FL,75,72.2,,24,135,-142.5,-142.5,135,65,70,-75,70,145,152.5,-165,152.5,357.5,,,,SBD,Raw,F,Open,Yes
3,Rebecca Hicks,,VA,75,72,,26,95,105,115,115,55,62.5,65,65,117.5,132.5,140,140,320,,,,SBD,Raw,F,Open,Yes
4,Tracy Sparks,,AL,75,74.6,,52,100,107.5,-110,107.5,57.5,62.5,-65,62.5,135,142.5,-150,142.5,312.5,,,,SBD,Raw,F,Open,Yes
5,Danielle Skelly,,OH,75,73,,52,82.5,87.5,-92.5,87.5,50,-55,-57.5,50,92.5,100,-102.5,100,237.5,,,,SBD,Raw,F,Open,Yes
1,Christianna Watkins,,GA,82.5,81.5,,32,145,152.5,162.5,162.5,102.5,107.5,-110,107.5,185,192.5,200,200,470,,,,SBD,Raw,F,Open,Yes
2,Julie Thibodaux,,LA,82.5,82.2,,34,162.5,-180,-180,162.5,70,80,-85,80,130,-137.5,140,140,382.5,,,,SBD,Raw,F,Open,Yes
3,Christina Morris #1,,AL,82.5,82.4,,35,-125,125,-132.5,125,62.5,-72.5,-72.5,62.5,140,145,-155,145,332.5,,,,SBD,Raw,F,Open,Yes
4,Lydia Riggs,,FL,82.5,80.9,,28,97.5,105,110,110,67.5,-72.5,-72.5,67.5,127.5,137.5,142.5,142.5,320,,,,SBD,Raw,F,Open,Yes
5,Bianca White,,GA,82.5,81.5,,62,112.5,120,122.5,122.5,57.5,62.5,-65,62.5,110,122.5,-127.5,122.5,307.5,,,,SBD,Raw,F,Open,Yes
DQ,Mari Saydal,,FL,82.5,80.1,,54,-100,-100,-100,,60,65,-67.5,65,112.5,120,-127.5,120,,,,,SBD,Raw,F,Open,Yes
1,Landri Peden,,OH,90,85.3,,36,170,-177.5,,170,97.5,-102.5,-102.5,97.5,182.5,190,-202.5,190,457.5,,,,SBD,Raw,F,Open,Yes
2,Valeria Anderson,,LA,90,88.1,,47,130,145,-150,145,87.5,-100,100,100,182.5,-205,-205,182.5,427.5,,,,SBD,Raw,F,Open,Yes
3,Jean Humphrey,,AL,90,87.2,,43,137.5,-142.5,-145,137.5,72.5,77.5,82.5,82.5,160,172.5,-182.5,172.5,392.5,,,,SBD,Raw,F,Open,Yes
4,Danielle Valentine,,MI,90,87.4,,44,122.5,130,135,135,62.5,67.5,-70,67.5,137.5,145,150,150,352.5,,,,SBD,Raw,F,Open,Yes
1,Christie Hoffmeyer,,AL,90+,119.1,,30,190,202.5,-210,202.5,100,105,110,110,-232.5,242.5,250,250,562.5,,,,SBD,Raw,F,Open,Yes
2,Katilyn LaBove,,LA,90+,116.6,,29,182.5,192.5,200,200,95,100,-102.5,100,195,207.5,-217.5,207.5,507.5,,,,SBD,Raw,F,Open,Yes
3,Taylor Castille,,LA,90+,156.2,,18,182.5,-195,200,200,90,97.5,-105,97.5,182.5,195,205,205,502.5,,,,SBD,Raw,F,Open,Yes
4,Sarah Webb,,TX,90+,108.7,,31,155,162.5,170,170,97.5,105,-107.5,105,170,182.5,-190,182.5,457.5,,,,SBD,Raw,F,Open,Yes
5,Katie Sprague,,FL,90+,135,,30,145,155,167.5,167.5,82.5,92.5,-100,92.5,147.5,165,172.5,172.5,432.5,,,,SBD,Raw,F,Open,Yes
6,Taylor Hurt #1,,VA,90+,90.3,,24,-137.5,137.5,145,145,65,70,75,75,142.5,150,165,165,385,,,,SBD,Raw,F,Open,Yes
7,Danielle Levesque,,OH,90+,173.4,,31,112.5,122.5,130,130,95,105,-115,105,137.5,-147.5,-147.5,137.5,372.5,,,,SBD,Raw,F,Open,Yes
8,Marissa Overstreet,,AL,90+,159.3,,16,-125,135,142.5,142.5,52.5,62.5,65,65,127.5,150,157.5,157.5,365,,,,SBD,Raw,F,Open,Yes
9,Heather Racine,,IN,90+,125.4,,36,115,122.5,132.5,132.5,67.5,72.5,77.5,77.5,140,150,-155,150,360,,,,SBD,Raw,F,Open,Yes
10,Shannon Ponthier,,LA,90+,121.4,,41,102.5,-110,110,110,112.5,-117.5,-117.5,112.5,120,125,132.5,132.5,355,,,,SBD,Raw,F,Open,Yes
11,Mallory Hutchison,,FL,90+,97.5,,18,95,107.5,120,120,60,67.5,-72.5,67.5,140,152.5,-160,152.5,340,,,,SBD,Raw,F,Open,Yes
1,Joni Craft,,AL,48,46.6,,43,72.5,75,-77.5,75,50,52.5,-55,52.5,-92.5,92.5,-100,92.5,220,,,,SBD,Raw,F,Masters 40-44,Yes
1,Margie Haddon,,TX,52,51.4,,59,85,92,93.5,93.5,51,-52,52,52,110.5,114.5,115.5,115.5,261,97.5,53,117.5,SBD,Raw,F,Masters 55-59,Yes
1,Tanisha Cabrera,,FL,56,53.4,,41,102.5,107.5,110,110,60,-62.5,-62.5,60,120,125,-127.5,125,295,,,,SBD,Raw,F,Masters 40-44,Yes
1,Tonya Turlington,,VA,56,54.2,,49,82.5,-87.5,87.5,87.5,47.5,-50,-50,47.5,120,125,-127.5,125,260,,,,SBD,Raw,F,Masters 45-49,Yes
1,Patricia Duboise,,GA,56,54.7,,54,77.5,-85,85,85,57.5,60,62.5,62.5,125,132.5,-137.5,132.5,280,,,,SBD,Raw,F,Masters 50-54,Yes
1,Tara Kittrell,,AR,60,58.8,,51,87.5,95,97.5,97.5,52.5,55,-57.5,55,117.5,127.5,137.5,137.5,290,,,,SBD,Raw,F,Masters 50-54,Yes
2,Monica Gillespie,,MO,60,58.5,,54,-92.5,92.5,-102.5,92.5,-47.5,47.5,50,50,-110,-110,110,110,252.5,,,,SBD,Raw,F,Masters 50-54,Yes
1,Karan Sanford-Taylor,,GA,60,59.6,,55,92.5,95,102.5,102.5,55,60,-65,60,120,130,137.5,137.5,300,,,,SBD,Raw,F,Masters 55-59,Yes
1,Emily Lilly,,NC,67.5,66.8,,42,-147.5,147.5,155,155,100,-105,-105,100,145,150,155,155,410,,,,SBD,Raw,F,Masters 40-44,Yes
2,Heidi Dehnel,,AL,67.5,64.9,,40,115,120,122.5,122.5,67.5,72.5,-77.5,72.5,145,-157.5,-157.5,145,340,,,,SBD,Raw,F,Masters 40-44,Yes
1,Marsha Stanton,,FL,67.5,64.4,,67,-55,-55,55,55,35,40,42.5,42.5,75,90,92.5,92.5,190,,,,SBD,Raw,F,Masters 65-69,Yes
1,Alisa Snyder,,NY,75,74.2,,46,115,125,-136,125,85,90,95,95,155,170,-177.5,170,390,,,,SBD,Raw,F,Masters 45-49,Yes
2,Evelyn McSwain,,AL,75,74.2,,49,92.5,97.5,102.5,102.5,47.5,52.5,-57.5,52.5,117.5,-127.5,130,130,285,,,,SBD,Raw,F,Masters 45-49,Yes
1,Tracy Sparks,,AL,75,74.6,,52,100,107.5,-110,107.5,57.5,62.5,-65,62.5,135,142.5,-150,142.5,312.5,,,,SBD,Raw,F,Masters 50-54,Yes
2,Danielle Skelly,,OH,75,73,,52,82.5,87.5,-92.5,87.5,50,-55,-57.5,50,92.5,100,-102.5,100,237.5,,,,SBD,Raw,F,Masters 50-54,Yes
1,Sherri Peppo,,LA,75,70,,58,85,97.5,-100,97.5,50,-57.5,-57.5,50,120,130,133,133,280.5,,,,SBD,Raw,F,Masters 55-59,Yes
1,Aven Malec,,OH,75,73.1,,62,75,77.5,80,80,45,47.5,-50,47.5,102.5,107.5,-117.5,107.5,235,,,,SBD,Raw,F,Masters 60-64,Yes
DQ,Mari Saydal,,FL,82.5,80.1,,54,-100,-100,-100,,60,65,-67.5,65,112.5,120,-127.5,120,,,,,SBD,Raw,F,Masters 50-54,Yes
1,Bianca White,,GA,82.5,81.5,,62,112.5,120,122.5,122.5,57.5,62.5,-65,62.5,110,122.5,-127.5,122.5,307.5,,,,SBD,Raw,F,Masters 60-64,Yes
1,Sandy Wentzel,,FL,90,88.6,,43,140,147.5,-153,147.5,75,82.5,-85,82.5,172.5,185,190,190,420,,,,SBD,Raw,F,Masters 40-44,Yes
2,Jean Humphrey,,AL,90,87.2,,43,137.5,-142.5,-145,137.5,72.5,77.5,82.5,82.5,160,172.5,-182.5,172.5,392.5,,,,SBD,Raw,F,Masters 40-44,Yes
3,Keli Hamman,,VA,90,88,,43,142.5,147.5,-153.5,147.5,67.5,-70,70,70,160,170,-177.5,170,387.5,,,,SBD,Raw,F,Masters 40-44,Yes
4,Danielle Valentine,,MI,90,87.4,,44,122.5,130,135,135,62.5,67.5,-70,67.5,137.5,145,150,150,352.5,,,,SBD,Raw,F,Masters 40-44,Yes
1,Valeria Anderson,,LA,90,88.1,,47,130,145,-150,145,87.5,-100,100,100,182.5,-205,-205,182.5,427.5,,,,SBD,Raw,F,Masters 45-49,Yes
1,Shari Langrall,,WV,90,87.6,,50,112.5,117.5,-122.5,117.5,67.5,-72.5,72.5,72.5,155,163,167.5,167.5,357.5,,,172.5,SBD,Raw,F,Masters 50-54,Yes
1,Tiffany Runnels,,LA,90+,108.2,,43,157.5,165,172.5,172.5,70,80,-87.5,80,157.5,167.5,177.5,177.5,430,,,,SBD,Raw,F,Masters 40-44,Yes
2,Shannon Ponthier,,LA,90+,121.4,,41,102.5,-110,110,110,112.5,-117.5,-117.5,112.5,120,125,132.5,132.5,355,,,,SBD,Raw,F,Masters 40-44,Yes
1,Kimberley Featherstone,,FL,90+,95.9,,49,112.5,120,-130,120,62.5,70,-77.5,70,137.5,150,-165,150,340,,,,SBD,Raw,F,Masters 45-49,Yes
1,Debbie Fitkin,,IA,90+,102.6,,64,-107.5,-112.5,112.5,112.5,57.5,-60,-60,57.5,115,120,125,125,295,,,130,SBD,Raw,F,Masters 60-64,Yes
1,Kelly Jalkh,,AL,67.5,66.2,,19,152.5,162.5,170,170,115,125,-132.5,125,205,220,-227.5,220,515,,,,SBD,Raw,M,Juniors 15-19,Yes
1,Grant Stark,,IL,67.5,67.2,,23,175,185,-190,185,130,-140,-140,130,220,237.5,-250,237.5,552.5,,,,SBD,Raw,M,Juniors 20-23,Yes
2,Jeffery Varnon,,AL,67.5,66.2,,20,167.5,175,180,180,97.5,105,-110,105,230,240,-250,240,525,,,,SBD,Raw,M,Juniors 20-23,Yes
3,Brett Bartley,,KY,67.5,62.2,,22,115,-120,-122.5,115,75,82.5,87.5,87.5,147.5,155,-160,155,357.5,,,,SBD,Raw,M,Juniors 20-23,Yes
DQ,Kaleb Cobb,,FL,67.5,65.7,,23,-147.5,-147.5,-147.5,,,,,,,,,,,,,,SBD,Raw,M,Juniors 20-23,Yes
1,Liam Hannon,,PA,75,74.6,,19,187.5,197.5,202.5,202.5,130,135,-137.5,135,217.5,230,-235,230,567.5,,,,SBD,Raw,M,Juniors 15-19,Yes
2,Chase Bell,,AL,75,73.3,,19,190,210,-222.5,210,97.5,-107.5,-117.5,97.5,197.5,-227.5,250,250,557.5,,,,SBD,Raw,M,Juniors 15-19,Yes
3,Wes Channell,,AL,75,72.8,,17,140,-150,-157.5,140,85,90,-92.5,90,145,157.5,-170,157.5,387.5,,,,SBD,Raw,M,Juniors 15-19,Yes
1,Ryan Dinh,,AL,75,74,,21,185,197.5,205,205,102.5,-110,115,115,220,227.5,240,240,560,,,,SBD,Raw,M,Juniors 20-23,Yes
2,Andrew Ruiz,,LA,75,74.4,,21,195,205,-212.5,205,100,107.5,-112.5,107.5,222.5,237.5,242.5,242.5,555,,,,SBD,Raw,M,Juniors 20-23,Yes
DQ,Anthony Terry,,FL,75,71.8,,20,-247.5,-262.5,-262.5,,,-160,-160,,,,,,,,,,SBD,Raw,M,Juniors 20-23,Yes
1,Dylan Davis,,FL,82.5,81.7,,18,205,215,-217.5,215,120,127.5,132.5,132.5,227.5,242.5,-252.5,242.5,590,,,,SBD,Raw,M,Juniors 15-19,Yes
2,Chase Law,,AL,82.5,80.3,2003-12-29,17,200,210,-215,210,125,132.5,137.5,137.5,165,180,185,185,532.5,,,,SBD,Raw,M,Juniors 15-19,Yes
3,Patrick Sengsiri,,AL,82.5,76.7,,17,165,175,-180,175,100,115,,115,207.5,217.5,-230,217.5,507.5,,,,SBD,Raw,M,Juniors 15-19,Yes
4,Dylan Houghton,,NC,82.5,80.4,,19,147.5,152.5,157.5,157.5,-95,100,105,105,187.5,207.5,-212.5,207.5,470,,,,SBD,Raw,M,Juniors 15-19,Yes
5,Andrew Allen #5,,AL,82.5,79.9,,17,137.5,147.5,-150,147.5,85,92.5,97.5,97.5,160,170,177.5,177.5,422.5,,,,SBD,Raw,M,Juniors 15-19,Yes
1,Austin Ivie,,AL,82.5,81.3,,21,217.5,-230,-230,217.5,125,130,-132.5,130,262.5,277.5,-285,277.5,625,,,,SBD,Raw,M,Juniors 20-23,Yes
2,Andrew Wilkerson,,AL,82.5,81.2,,22,-205,205,220,220,132.5,137.5,-142.5,137.5,250,262.5,-272.5,262.5,620,,,,SBD,Raw,M,Juniors 20-23,Yes
3,Levi Johnson,,TX,82.5,79.2,,20,185,192.5,200,200,125,130,135,135,225,235,245,245,580,,,,SBD,Raw,M,Juniors 20-23,Yes
4,Nathan Heburn,,FL,82.5,79.5,,21,155,167.5,177.5,177.5,130,137.5,-142.5,137.5,210,220,-225,220,535,,,,SBD,Raw,M,Juniors 20-23,Yes
DQ,Chase Harris,,MO,82.5,80.7,,20,-220,-237.5,-237.5,,-127.5,135,-137.5,135,257.5,272.5,282.5,282.5,,,,,SBD,Raw,M,Juniors 20-23,Yes
1,Lance Jelen,,OH,90,87.3,,16,-217.5,235,-245,235,142.5,155,161,161,227.5,242.5,-252.5,242.5,638.5,,,,SBD,Raw,M,Juniors 15-19,Yes
2,Dalton Atchison,,AL,90,87.1,,19,-217.5,217.5,-227.5,217.5,127.5,137.5,-142.5,137.5,222.5,-232.5,-232.5,222.5,577.5,,,,SBD,Raw,M,Juniors 15-19,Yes
3,Evan Joiner,,GA,90,89.3,,19,180,195,,195,95,-102.5,-105,95,225,240,-253,240,530,,,,SBD,Raw,M,Juniors 15-19,Yes
1,Jake Gaston,,CA,90,90,,23,195,210,217.5,217.5,125,130,137.5,137.5,227.5,-235,235,235,590,,,,SBD,Raw,M,Juniors 20-23,Yes
1,Riley Lefcakis,,PA,100,99.6,,16,192.5,197.5,205,205,102.5,107.5,112.5,112.5,220,232.5,247.5,247.5,565,,,,SBD,Raw,M,Juniors 15-19,Yes
2,Chris Holsonback,,AL,100,97.4,,17,192.5,205,-217.5,205,107.5,-112.5,112.5,112.5,245,-265,-265,245,562.5,,,,SBD,Raw,M,Juniors 15-19,Yes
1,Ben Jones #2,,GA,100,97,,22,185,187.5,200,200,142.5,147.5,-152.5,147.5,247.5,255,265,265,612.5,,,,SBD,Raw,M,Juniors 20-23,Yes
2,Jack Menzl,,FL,100,98.4,,22,177.5,182.5,190,190,122.5,130,-135,130,235,250,265,265,585,,,,SBD,Raw,M,Juniors 20-23,Yes
3,Andrew Curtis,,AL,100,96.8,,21,-187.5,192.5,-205,192.5,120,-127.5,-127.5,120,212.5,227.5,-235,227.5,540,,,,SBD,Raw,M,Juniors 20-23,Yes
1,Nathan Rackow,,AL,110,109.6,,17,240,245,247.5,247.5,197.5,-200,200,200,240,242.5,-245,242.5,690,,,,SBD,Raw,M,Juniors 15-19,Yes
1,Tyler Williams,,FL,110,108.8,,22,-267.5,280,287.5,287.5,167.5,175,-182.5,175,292.5,300,305,305,767.5,,,,SBD,Raw,M,Juniors 20-23,Yes
2,Dalton Brooks,,AL,110,109.1,,21,237.5,-247.5,-247.5,237.5,152.5,157.5,-160,157.5,255,275,-280,275,670,,,,SBD,Raw,M,Juniors 20-23,Yes
1,Spencer Bozeman,,AL,125,112.8,,17,215,227.5,235,235,110,125,135,135,230,247.5,262.5,262.5,632.5,,,,SBD,Raw,M,Juniors 15-19,Yes
1,Anthony Woodall,,GA,125,116.7,,23,250,257.5,-262.5,257.5,210,-212.5,212.5,212.5,240,252.5,260,260,730,,,,SBD,Raw,M,Juniors 20-23,Yes
2,Nicholas Perry,,NC,125,118.8,,22,257.5,277.5,290,290,147.5,-160,165,165,-245,245,265,265,720,,,,SBD,Raw,M,Juniors 20-23,Yes
3,Dillon Baker,,AL,125,124,,22,210,220,230,230,155,-165,165,165,215,230,-245,230,625,,,,SBD,Raw,M,Juniors 20-23,Yes
1,Ruben Perez,,AL,140,136.9,,23,197.5,212.5,-220,212.5,-152.5,152.5,157.5,157.5,255,270,-285,270,640,,,,SBD,Raw,M,Juniors 20-23,Yes
1,Jack Mckenzie,,MS,140+,157.5,,19,230,260,275,275,165,185,195,195,275,305,320,320,790,,,,SBD,Raw,M,Juniors 15-19,Yes
1,Brandan Liscano,,TX,140+,155.2,,23,80,,,80,220,-225,-225,220,240,245,252.5,252.5,552.5,,,,SBD,Raw,M,Juniors 20-23,Yes
1,Scott Goins,,LA,56,55.5,,60,-72.5,72.5,-77.5,72.5,52.5,55,-60,55,102.5,110,-115.5,110,237.5,,,,SBD,Raw,M,Open,Yes
1,Julio Zavala,,GA,60,59.7,,29,170,180,-187.5,180,133,137.5,142.5,142.5,215,227.5,230.5,230.5,553,,,,SBD,Raw,M,Open,Yes
2,Tony Huynh,,FL,60,59.4,,29,172.5,182.5,187.5,187.5,110,117.5,-125,117.5,200,212.5,-220,212.5,517.5,,,,SBD,Raw,M,Open,Yes
1,Grant Stark,,IL,67.5,67.2,,23,175,185,-190,185,130,-140,-140,130,220,237.5,-250,237.5,552.5,,,,SBD,Raw,M,Open,Yes
2,Cole Lavergne,,LA,67.5,66.9,,38,170,182.5,190,190,117.5,122.5,125,125,212.5,227.5,235,235,550,,,,SBD,Raw,M,Open,Yes
3,Bryan Gabbard,,FL,67.5,66.9,,31,167.5,180,-190,180,105,115,122.5,122.5,210,225,237.5,237.5,540,,,,SBD,Raw,M,Open,Yes
4,Jeffery Varnon,,AL,67.5,66.2,,20,167.5,175,180,180,97.5,105,-110,105,230,240,-250,240,525,,,,SBD,Raw,M,Open,Yes
5,Kelly Jalkh,,AL,67.5,66.2,,19,152.5,162.5,170,170,115,125,-132.5,125,205,220,-227.5,220,515,,,,SBD,Raw,M,Open,Yes
6,Edward Coleman,,AL,67.5,67.2,,27,170,-182.5,182.5,182.5,-115,115,-127.5,115,187.5,202.5,-210,202.5,500,,,,SBD,Raw,M,Open,Yes
7,Hunter Britton,,SC,67.5,66.3,,29,127.5,137.5,142.5,142.5,97.5,102.5,105,105,167.5,180,187.5,187.5,435,,,,SBD,Raw,M,Open,Yes
8,Bill Britton,,SC,67.5,65.9,,29,110,120,-137.5,120,90,95,-102.5,95,147.5,160,167.5,167.5,382.5,,,,SBD,Raw,M,Open,Yes
DQ,Kaleb Cobb,,FL,67.5,65.7,,23,-147.5,-147.5,-147.5,,,,,,,,,,,,,,SBD,Raw,M,Open,Yes
1,Paul Ruiz,,AL,75,73,,24,220,227.5,240,240,142.5,150,-160,150,267.5,-280,-280,267.5,657.5,,,,SBD,Raw,M,Open,Yes
2,Chris Lentini #1,,AL,75,74.5,,45,215,-227.5,-227.5,215,160,170,-175,170,250,272.5,-277.5,272.5,657.5,,,,SBD,Raw,M,Open,Yes
3,Jason Haas-Christian,,AL,75,73.8,,36,182.5,195,200,200,120,127.5,-132.5,127.5,227.5,245,-250,245,572.5,,,,SBD,Raw,M,Open,Yes
4,Liam Hannon,,PA,75,74.6,,19,187.5,197.5,202.5,202.5,130,135,-137.5,135,217.5,230,-235,230,567.5,,,,SBD,Raw,M,Open,Yes
5,Jared Daigre,,LA,75,73.7,,40,185,190,-195,190,120,-127.5,-127.5,120,250,-260,-260,250,560,,,,SBD,Raw,M,Open,Yes
6,Andrew Ruiz,,LA,75,74.4,,21,195,205,-212.5,205,100,107.5,-112.5,107.5,222.5,237.5,242.5,242.5,555,,,,SBD,Raw,M,Open,Yes
7,Paul Stewart,,NC,75,74.1,,23,167.5,177.5,-185,177.5,125,-132.5,-132.5,125,235,250,-257.5,250,552.5,,,,SBD,Raw,M,Open,Yes
8,Dalton Hyden,,KY,75,73.2,,26,155,162.5,167.5,167.5,105,112.5,-115,112.5,205,220,-230,220,500,,,,SBD,Raw,M,Open,Yes
DQ,Rafael Vallejo III,,FL,75,73.9,,44,192.5,197.5,-200,197.5,-120,122.5,-127.5,122.5,-247.5,-247.5,-247.5,,,,,,SBD,Raw,M,Open,Yes
1,Zac Denson,,AL,82.5,80.9,,24,232.5,237.5,245,245,142.5,145,147.5,147.5,295,307.5,-312.5,307.5,700,,,,SBD,Raw,M,Open,Yes
2,Colton Grimm,,ID,82.5,80.6,,25,205,215,227.5,227.5,132.5,140,-145,140,247.5,262.5,275,275,642.5,,,,SBD,Raw,M,Open,Yes
3,Austin Ivie,,AL,82.5,81.3,,21,217.5,-230,-230,217.5,125,130,-132.5,130,262.5,277.5,-285,277.5,625,,,,SBD,Raw,M,Open,Yes
4,Mu Tsai Fang,,AL,82.5,81.4,,37,180,190,197.5,197.5,135,142.5,-147.5,142.5,227.5,235,245,245,585,,,,SBD,Raw,M,Open,Yes
5,John Davis #2,,MS,82.5,81.4,,25,185,195,205,205,125,132.5,137.5,137.5,215,217.5,240,240,582.5,,,,SBD,Raw,M,Open,Yes
6,Jeffrey Millwood,,AL,82.5,82.5,,25,-205,210,-220,210,137.5,-150,-150,137.5,-215,217.5,-222.5,217.5,565,,,,SBD,Raw,M,Open,Yes
7,Philip Sullivan,,GA,82.5,80.5,,50,167.5,180,187.5,187.5,130,135,-140,135,205,222.5,-230,222.5,545,,,,SBD,Raw,M,Open,Yes
8,Chase Law,,AL,82.5,80.3,,17,200,210,-215,210,125,132.5,137.5,137.5,165,180,185,185,532.5,,,,SBD,Raw,M,Open,Yes
9,Patrick Sengsiri,,AL,82.5,76.7,,17,165,175,-180,175,100,115,,115,207.5,217.5,-230,217.5,507.5,,,,SBD,Raw,M,Open,Yes
10,Austin Salmi,,FL,82.5,78.6,,24,-165,-165,165,165,112.5,120,-122.5,120,200,212.5,-230,212.5,497.5,,,,SBD,Raw,M,Open,Yes
11,Roger Kitchen Jr,,AL,82.5,82.1,,51,-170,170,-185,170,107.5,-110,110,110,197.5,207.5,212.5,212.5,492.5,,,,SBD,Raw,M,Open,Yes
12,Kenneth Williams #2,,AL,82.5,78.8,,61,112.5,125,130,130,100,112.5,-115,112.5,-120,135,145,145,387.5,,,,SBD,Raw,M,Open,Yes
DQ,Chase Harris,,MO,82.5,80.7,,20,-220,-237.5,-237.5,,-127.5,135,-137.5,135,257.5,272.5,282.5,282.5,,,,,SBD,Raw,M,Open,Yes
1,Levi Duncan,,MO,90,87.8,,27,260,270,277.5,277.5,160,-170,-170,160,300,315,-322.5,315,752.5,,,,SBD,Raw,M,Open,Yes
2,EJ Thomas,,TX,90,85.3,,35,-220,225,-245,225,145,150,-152.5,150,272.5,290,-300,290,665,,,,SBD,Raw,M,Open,Yes
3,James McMillian,,LA,90,87.7,,35,205,215,-222.5,215,162.5,170,-172.5,170,-265,265,-270,265,650,,,,SBD,Raw,M,Open,Yes
4,Ken Burns,,PA,90,89.4,,30,200,217.5,227.5,227.5,160,-170,170,170,227.5,250,-257.5,250,647.5,,,,SBD,Raw,M,Open,Yes
5,Anthony Colangeli,,VA,90,89.1,,32,205,-217.5,220,220,120,127.5,-132.5,127.5,250,260,-262.5,260,607.5,,,,SBD,Raw,M,Open,Yes
6,Randy Fry,,WI,90,87.7,,45,187.5,195,-200,195,155,,,155,205,-225,230,230,580,,,,SBD,Raw,M,Open,Yes
7,Dalton Atchison,,AL,90,87.1,,19,-217.5,217.5,-227.5,217.5,127.5,137.5,-142.5,137.5,222.5,-232.5,-232.5,222.5,577.5,,,,SBD,Raw,M,Open,Yes
8,Caleb Thomas,,MS,90,88.2,,27,182.5,192.5,200,200,115,122.5,-130,122.5,225,235,-240,235,557.5,,,,SBD,Raw,M,Open,Yes
9,Dustin Haraway,,AL,90,87.3,,27,170,185,-192.5,185,117.5,125,135,135,185,210,217.5,217.5,537.5,,,,SBD,Raw,M,Open,Yes
10,Everett Simmons,,TN,90,85.8,,27,165,-175,-175,165,122.5,130,-137.5,130,192.5,200,207.5,207.5,502.5,,,,SBD,Raw,M,Open,Yes
DQ,Lamar Rhodes,,AL,90,85.6,,35,-272.5,-272.5,-272.5,,160,170,172.5,172.5,317.5,,,317.5,,,,,SBD,Raw,M,Open,Yes
DQ,Alex Brooks,,AL,90,88.4,,30,235,-237.5,-237.5,235,162.5,-167.5,-167.5,162.5,-250,-250,-250,,,,,,SBD,Raw,M,Open,Yes
1,Jeffery Lawrence,,AL,100,97.2,,27,235,255,-272.5,255,165,185,-192.5,185,312.5,342.5,352.5,352.5,792.5,,,,SBD,Raw,M,Open,Yes
2,Cody Large,,LA,100,99.3,,35,245,260,272.5,272.5,152.5,162.5,170,170,265,282.5,292.5,292.5,735,,,,SBD,Raw,M,Open,Yes
3,Garret Holland,,AL,100,97.2,,28,237.5,-250,-257.5,237.5,142.5,150,-160,150,285,297.5,-307.5,297.5,685,,,,SBD,Raw,M,Open,Yes
4,Jeff Ray,,AL,100,98.9,,55,217.5,232.5,240,240,152.5,160,-165.5,160,267.5,280,-285,280,680,,,,SBD,Raw,M,Open,Yes
5,Joel Bowers,,IN,100,98.4,,45,235,242.5,-250,242.5,155,158,-160,158,237.5,250,-252.5,250,650.5,,,,SBD,Raw,M,Open,Yes
6,Evan Miller #1,,MO,100,99.2,,26,230,-235,,230,145,-150,150,150,257.5,-272.5,,257.5,637.5,,,,SBD,Raw,M,Open,Yes
7,Caleb Smith #2,,FL,100,97.4,,30,225,235,-242.5,235,127.5,-132.5,-132.5,127.5,272.5,-290,-290,272.5,635,,,,SBD,Raw,M,Open,Yes
8,Eric Levy,,GA,100,99.6,,48,210,-225,-225,210,120,125,-127.5,125,260,-272.5,-272.5,260,595,,,,SBD,Raw,M,Open,Yes
9,Marcus Wilson,,AL,100,97.4,,30,167.5,172.5,182.5,182.5,137.5,-150,155,155,215,227.5,235,235,572.5,,,,SBD,Raw,M,Open,Yes
10,Zachery Benford,,FL,100,98.1,,28,165,180,190,190,140,147.5,155,155,195,212.5,227.5,227.5,572.5,,,,SBD,Raw,M,Open,Yes
11,Chris Holsonback,,AL,100,97.4,,17,192.5,205,-217.5,205,107.5,-112.5,112.5,112.5,245,-265,-265,245,562.5,,,,SBD,Raw,M,Open,Yes
1,Marshall Harmon,,TX,110,108.5,,27,300,315,325,325,190,200,207.5,207.5,262.5,277.5,292.5,292.5,825,,,,SBD,Raw,M,Open,Yes
2,Otto Dobretsberger,,TX,110,108,,36,255,272.5,285,285,190,213,217.5,217.5,295,320,-330,320,822.5,,,,SBD,Raw,M,Open,Yes
3,Cardell Oliver,,GA,110,105.6,,43,272.5,-300,-320,272.5,182.5,190,-195,190,325,-337.5,-337.5,325,787.5,,,,SBD,Raw,M,Open,Yes
4,Lamar Holmes,,LA,110,108,,30,-272.5,-275,275,275,175,182.5,187.5,187.5,310,320,325,325,787.5,,,,SBD,Raw,M,Open,Yes
5,Mason Ducote,,LA,110,107.3,,25,272.5,285,-292.5,285,187.5,-197.5,-197.5,187.5,-292.5,295,,295,767.5,,,,SBD,Raw,M,Open,Yes
6,Tyler Williams,,FL,110,108.8,,22,-267.5,280,287.5,287.5,167.5,175,-182.5,175,292.5,300,305,305,767.5,,,,SBD,Raw,M,Open,Yes
7,Millard Peacock,,AL,110,107.5,,45,220,235,-237.5,235,185,-192.5,-195,185,277.5,-287.5,-287.5,277.5,697.5,,,,SBD,Raw,M,Open,Yes
8,Warren Parker,,AL,110,108.3,,25,250,-262.5,-267.5,250,172.5,-185,,172.5,255,265,-277.5,265,687.5,,,,SBD,Raw,M,Open,Yes
9,Bill Wyatt,,AR,110,105.8,,54,225,232.5,240,240,142.5,150,-155,150,-275,287.5,-300,287.5,677.5,,,,SBD,Raw,M,Open,Yes
10,Bryant Wood,,AL,110,105.1,,28,207.5,220,225,225,-152.5,160,165,165,260,272.5,280,280,670,,,,SBD,Raw,M,Open,Yes
11,Jeromie Goggin,,FL,110,104.2,,40,270,-275,282.5,282.5,120,132.5,-142.5,132.5,227.5,240,245,245,660,,,,SBD,Raw,M,Open,Yes
12,Ruben Vigil II,,CO,110,107.1,,45,225,232.5,240,240,145,150,152.5,152.5,252.5,267.5,-275,267.5,660,,,,SBD,Raw,M,Open,Yes
13,Jacob Clayton,,FL,110,109.1,,29,190,200,-215,200,127.5,-147.5,,127.5,220,250,272.5,272.5,600,,,,SBD,Raw,M,Open,Yes
1,Wes Murray,,FL,125,124,,29,272.5,287.5,297.5,297.5,182.5,195,202.5,202.5,305,315,320,320,820,,,,SBD,Raw,M,Open,Yes
2,Christian Barham,,VA,125,122.4,,28,272.5,290,307.5,307.5,145,160,172.5,172.5,275,300,312.5,312.5,792.5,,,,SBD,Raw,M,Open,Yes
3,Jonathan Pritchett,,GA,125,117.4,,27,237.5,260,-270,260,152.5,162.5,-175,162.5,260,285,-295,285,707.5,,,,SBD,Raw,M,Open,Yes
4,Edgar Ramirez,,AL,125,123.2,,24,252.5,265,-272.5,265,152.5,-160,160,160,252.5,272.5,-295,272.5,697.5,,,,SBD,Raw,M,Open,Yes
5,Sean Smith #8,,VA,125,120.1,,26,245,255,-262.5,255,185,-190,-192.5,185,255,-272.5,-272.5,255,695,,,,SBD,Raw,M,Open,Yes
6,Bo Thompson,,VA,125,121.1,,39,250,265,-285,265,155,-167.5,-167.5,155,250,260,272.5,272.5,692.5,,,,SBD,Raw,M,Open,Yes
7,William Jackson #7,,AL,125,113,,27,215,227.5,-237.5,227.5,137.5,145,152.5,152.5,260,277.5,287.5,287.5,667.5,,,,SBD,Raw,M,Open,Yes
8,Spencer Bozeman,,AL,125,112.8,,17,215,227.5,235,235,110,125,135,135,230,247.5,262.5,262.5,632.5,,,,SBD,Raw,M,Open,Yes
9,Alexander Sorenson,,AL,125,124,,26,215,227.5,-232.5,227.5,117.5,127.5,-135,127.5,217.5,227.5,237.5,237.5,592.5,,,,SBD,Raw,M,Open,Yes
1,Anthony Foster,,AL,140,132,,29,287.5,302.5,-322.5,302.5,182.5,187.5,,187.5,287.5,307.5,-317.5,307.5,797.5,,,,SBD,Raw,M,Open,Yes
2,Curtis Hechler,,MO,140,135.3,,25,265,275,-282.5,275,152.5,160,-167.5,160,265,280,292.5,292.5,727.5,,,,SBD,Raw,M,Open,Yes
DQ,Chuck Bell,,IN,140,132.6,,49,-175,175,-185,175,-165,-165,,,,,,,,,,,SBD,Raw,M,Open,Yes
1,Trey Roberson,,AL,140+,147.5,,25,310,320,325,325,237.5,242.5,247.5,247.5,310,325,332.5,332.5,905,,,,SBD,Raw,M,Open,Yes
2,Jihan Garland,,VA,140+,147.9,,32,-285,285,305,305,200,217.5,,217.5,317.5,-332.5,332.5,332.5,855,,,,SBD,Raw,M,Open,Yes
3,John Newby,,FL,140+,142.5,,41,-310,310,-322.5,310,225,-235,-235,225,252.5,-267.5,267.5,267.5,802.5,,,,SBD,Raw,M,Open,Yes
4,Jack Mckenzie,,MS,140+,157.5,,19,230,260,275,275,165,185,195,195,275,305,320,320,790,,,,SBD,Raw,M,Open,Yes
5,David Perry,,NC,140+,152.2,,40,295,320,-325,320,200,210,-222.5,210,240,-250,-250,240,770,,,,SBD,Raw,M,Open,Yes
1,Scott Goins,,LA,56,55.5,,60,-72.5,72.5,-77.5,72.5,52.5,55,-60,55,102.5,110,-115.5,110,237.5,,,,SBD,Raw,M,Masters 60-64,Yes
1,Keith Derr,,VA,67.5,66.7,,51,120,130,137.5,137.5,82.5,90,-92.5,90,165,175,182.5,182.5,410,,,,SBD,Raw,M,Masters 50-54,Yes
1,Jared Daigre,,LA,75,73.7,,40,185,190,-195,190,120,-127.5,-127.5,120,250,-260,-260,250,560,,,,SBD,Raw,M,Masters 40-44,Yes
DQ,Rafael Vallejo III,,FL,75,73.9,,44,192.5,197.5,-200,197.5,-120,122.5,-127.5,122.5,-247.5,-247.5,-247.5,,,,,,SBD,Raw,M,Masters 40-44,Yes
1,Chris Lentini #1,,AL,75,74.5,,45,215,-227.5,-227.5,215,160,170,-175,170,250,272.5,-277.5,272.5,657.5,,,,SBD,Raw,M,Masters 45-49,Yes
1,Philip Sullivan,,GA,82.5,80.5,,50,167.5,180,187.5,187.5,130,135,-140,135,205,222.5,-230,222.5,545,,,,SBD,Raw,M,Masters 50-54,Yes
2,Roger Kitchen Jr,,AL,82.5,82.1,,51,-170,170,-185,170,107.5,-110,110,110,197.5,207.5,212.5,212.5,492.5,,,,SBD,Raw,M,Masters 50-54,Yes
3,George Linder,,OH,82.5,79.9,,53,142.5,-150,150,150,100,105,107.5,107.5,185,192.5,197.5,197.5,455,,,,SBD,Raw,M,Masters 50-54,Yes
1,Kenneth Lett,,MS,82.5,80.9,,59,-152.5,-152.5,152.5,152.5,120,125,127.5,127.5,165,170,-175,170,450,,,,SBD,Raw,M,Masters 55-59,Yes
1,Kenneth Williams #2,,AL,82.5,78.8,,61,112.5,125,130,130,100,112.5,-115,112.5,-120,135,145,145,387.5,,,,SBD,Raw,M,Masters 60-64,Yes
DQ,Michael Morgan,,KY,82.5,79.8,,60,-122.5,,,,102.5,107.5,-110,107.5,170,175,-180,175,,,,,SBD,Raw,M,Masters 60-64,Yes
1,Al Eike,,MS,82.5,80.2,,78,97.5,107.5,112.5,112.5,45,,,45,112.5,125,145,145,302.5,,,,SBD,Raw,M,Masters 75-79,Yes
1,Randy Fry,,WI,90,87.7,,45,187.5,195,-200,195,155,,,155,205,-225,230,230,580,,,,SBD,Raw,M,Masters 45-49,Yes
1,Gianni Iadanza,,LA,90,89.2,,51,165,180,-185,180,80,-85,,80,165,177.5,200,200,460,,,,SBD,Raw,M,Masters 50-54,Yes
1,Jason Borries,,MS,90,89.3,,59,165,-182.5,-182.5,165,137.5,-142.5,142.5,142.5,182.5,195,205,205,512.5,,,,SBD,Raw,M,Masters 55-59,Yes
2,James Poghen II,,OH,90,85.5,,56,157.5,167.5,-175,167.5,100,-112.5,120,120,175,190,197.5,197.5,485,,,,SBD,Raw,M,Masters 55-59,Yes
1,Brandon Tedder,,SC,100,97.3,,41,195,205,217.5,217.5,142.5,155,-165,155,230,235,250,250,622.5,,,,SBD,Raw,M,Masters 40-44,Yes
1,Joel Bowers,,IN,100,98.4,,45,235,242.5,-250,242.5,155,158,-160,158,237.5,250,-252.5,250,650.5,,,,SBD,Raw,M,Masters 45-49,Yes
2,Eric Levy,,GA,100,99.6,,48,210,-225,-225,210,120,125,-127.5,125,260,-272.5,-272.5,260,595,,,,SBD,Raw,M,Masters 45-49,Yes
1,Grant Garner #1,,TX,100,93.5,,52,160,-170,-170,160,147.5,-156.5,-156.5,147.5,185,195,-205,195,502.5,,,,SBD,Raw,M,Masters 50-54,Yes
2,Ricco Impastato,,LA,100,99.7,,51,165,185,,185,105,110,115,115,170,-195,-195,170,470,,,,SBD,Raw,M,Masters 50-54,Yes
1,Jeff Ray,,AL,100,98.9,,55,217.5,232.5,240,240,152.5,160,-165.5,160,267.5,280,-285,280,680,,,,SBD,Raw,M,Masters 55-59,Yes
DQ,Jimmy Smith,,AL,100,91,,68,-105,-110,-125,,95,-107.5,-107.5,95,-165,165,-182.5,165,,,,,SBD,Raw,M,Masters 65-69,Yes
1,Larry Soderberg,,IA,100,93.6,,71,152.5,160,,160,150,-155,,150,-177.5,177.5,187.5,187.5,497.5,,,,SBD,Raw,M,Masters 70-74,Yes
1,Cardell Oliver,,GA,110,105.6,,43,272.5,-300,-320,272.5,182.5,190,-195,190,325,-337.5,-337.5,325,787.5,,,,SBD,Raw,M,Masters 40-44,Yes
2,Jeromie Goggin,,FL,110,104.2,,40,270,-275,282.5,282.5,120,132.5,-142.5,132.5,227.5,240,245,245,660,,,,SBD,Raw,M,Masters 40-44,Yes
3,Jeremy Grimm,,IA,110,108,,41,215,235,240,240,160,-170,170,170,247.5,-265,-265,247.5,657.5,,,,SBD,Raw,M,Masters 40-44,Yes
1,Millard Peacock,,AL,110,107.5,,45,220,235,-237.5,235,185,-192.5,-195,185,277.5,-287.5,-287.5,277.5,697.5,,,,SBD,Raw,M,Masters 45-49,Yes
2,Ruben Vigil II,,CO,110,107.1,,45,225,232.5,240,240,145,150,152.5,152.5,252.5,267.5,-275,267.5,660,,,,SBD,Raw,M,Masters 45-49,Yes
3,Robert Morrow,,AL,110,101.7,,48,-165,165,-175,165,117.5,122.5,,122.5,205,225,-232.5,225,512.5,,,,SBD,Raw,M,Masters 45-49,Yes
1,Bill Wyatt,,AR,110,105.8,,54,225,232.5,240,240,142.5,150,-155,150,-275,287.5,-300,287.5,677.5,,,,SBD,Raw,M,Masters 50-54,Yes
2,Anthony Ford,,AL,110,107.6,,52,185,205,220,220,185,195,200,200,-230,230,252.5,252.5,672.5,,,,SBD,Raw,M,Masters 50-54,Yes
1,Henry Henington,,MS,110,102.6,,79,102.5,-110,-110,102.5,87.5,-93.5,-100,87.5,127.5,137.5,140,140,330,,,,SBD,Raw,M,Masters 75-79,Yes
1,Chris Bearb,,LA,125,122.8,,48,255,265,-275,265,132.5,137.5,142.5,142.5,230,245,260.5,260.5,668,,,,SBD,Raw,M,Masters 45-49,Yes
2,Eric Boone,,IA,125,114.4,,45,215,232.5,-237.5,232.5,-137.5,137.5,-147.5,137.5,225,237.5,-240,237.5,607.5,,,,SBD,Raw,M,Masters 45-49,Yes
DQ,Chuck Bell,,IN,140,132.6,,49,-175,175,-185,175,-165,-165,,,,,,,,,,,SBD,Raw,M,Masters 45-49,Yes
1,Michael Lloyd,,GA,140,135.6,,54,170,185,187.5,187.5,150,-160,,150,190,-200,205,205,542.5,,,,SBD,Raw,M,Masters 50-54,Yes
1,John Newby,,FL,140+,142.5,,41,-310,310,-322.5,310,225,-235,-235,225,252.5,-267.5,267.5,267.5,802.5,,,,SBD,Raw,M,Masters 40-44,Yes
2,David Perry,,NC,140+,152.2,,40,295,320,-325,320,200,210,-222.5,210,240,-250,-250,240,770,,,,SBD,Raw,M,Masters 40-44,Yes
1,Hannah Duda,,MO,67.5,65,,21,150,160,165,165,65,70,-75,70,170,175,180,180,415,,,185,SBD,Wraps,F,Juniors 20-23,Yes
1,Roshni Anderson,,WA,75,72.9,,23,115,-130,130,130,60,70,-75,70,125,135,142.5,142.5,342.5,,,,SBD,Wraps,F,Juniors 20-23,Yes
1,Dawn Harvey,,IN,52,51.1,,41,100,107.5,-112.5,107.5,55,-57.5,-57.5,55,115,122.5,127.5,127.5,290,,,,SBD,Wraps,F,Open,Yes
2,Buffy Coleman,,AR,52,51.2,,30,97.5,-100,-100,97.5,65,-67.5,-67.5,65,-125,125,-140,125,287.5,,,,SBD,Wraps,F,Open,Yes
1,Monica New,,LA,75,70.2,,39,125,137.5,-145,137.5,55,57.5,-60,57.5,132.5,145,150,150,345,,,,SBD,Wraps,F,Open,Yes
2,Roshni Anderson,,WA,75,72.9,,23,115,-130,130,130,60,70,-75,70,125,135,142.5,142.5,342.5,,,,SBD,Wraps,F,Open,Yes
3,Jennifer Schwardt,,IL,75,74.3,,43,-115,115,-122.5,115,-57.5,60,-65,60,127.5,135,140,140,315,,,,SBD,Wraps,F,Open,Yes
1,Brooke Hider,,OH,90,88.4,,44,162.5,176,-177.5,176,98,-105.5,105.5,105.5,168,177.5,-184,177.5,459,,,,SBD,Wraps,F,Open,Yes
1,Milena Schaefer,,GA,90+,120.4,,30,-200,-207.5,207.5,207.5,105,-110,110,110,200,212.5,-217.5,212.5,530,,,,SBD,Wraps,F,Open,Yes
2,Yejide Kincaid,,AR,90+,138.1,,28,140,-152.5,-165,140,72.5,80,-85,80,155,167.5,182.5,182.5,402.5,,,,SBD,Wraps,F,Open,Yes
1,Dawn Harvey,,IN,52,51.1,,41,100,107.5,-112.5,107.5,55,-57.5,-57.5,55,115,122.5,127.5,127.5,290,,,,SBD,Wraps,F,Masters 40-44,Yes
1,Kim Townsel,,AL,52,51.1,,62,30,32.5,35,35,32.5,37.5,-42.5,37.5,75,80,-85,80,152.5,,,,SBD,Wraps,F,Masters 60-64,Yes
1,Carolyn Harris,,AL,60,59.8,,57,87.5,95,100,100,45,52.5,-55,52.5,120,130,-135,130,282.5,,,,SBD,Wraps,F,Masters 55-59,Yes
1,Jennifer Schwardt,,IL,75,74.3,,43,-115,115,-122.5,115,-57.5,60,-65,60,127.5,135,140,140,315,,,,SBD,Wraps,F,Masters 40-44,Yes
1,Felicia Johnson-Almy,,FL,75,73.5,,62,80,87.5,-92.5,87.5,57.5,67.5,70,70,100,115,125,125,282.5,,,,SBD,Wraps,F,Masters 60-64,Yes
1,Kimberly Smith,,AL,82.5,80.8,,61,72.5,-80,80,80,37.5,-42.5,-42.5,37.5,82.5,90,105,105,222.5,,,,SBD,Wraps,F,Masters 60-64,Yes
1,Brooke Hider,,OH,90,88.4,,44,162.5,176,-177.5,176,98,-105.5,105.5,105.5,168,177.5,-184,177.5,459,,,,SBD,Wraps,F,Masters 40-44,Yes
1,Michael Coalla,,GA,100,96.9,,23,-265,272.5,-285,272.5,140,150,160,160,265,-282.5,-282.5,265,697.5,,,,SBD,Wraps,M,Juniors 20-23,Yes
1,Lance Pickett,,AL,125,124,,23,260,275,280,280,170,-182.5,-182.5,170,230,252.5,260,260,710,,,,SBD,Wraps,M,Juniors 20-23,Yes
1,Avery Vodanovich,,LA,75,74.9,,27,210,-222.5,-222.5,210,-147.5,152.5,-160,152.5,192.5,-210,-210,192.5,555,,,,SBD,Wraps,M,Open,Yes
DQ,Angelo Riley,,NC,82.5,82.2,,28,-202.5,-202.5,-205,,125,135,-142.5,135,187.5,195,215,215,,,,,SBD,Wraps,M,Open,Yes
1,Steven Luminais,,LA,90,88.5,,32,207.5,215,-220,215,130,140,-142.5,140,225,235,245,245,600,,,,SBD,Wraps,M,Open,Yes
2,Garrett Hale,,TX,90,88.5,,26,180,-190,-190,180,122.5,125,-130,125,222.5,230,235,235,540,,,,SBD,Wraps,M,Open,Yes
3,Bobby Brown,,AL,90,89.4,,39,160,175,,175,147.5,-162.5,-162.5,147.5,165,187.5,200,200,522.5,,,,SBD,Wraps,M,Open,Yes
DQ,Marrius Garth,,AL,125,118.8,,46,-265,-265,-275,,,,,,,,,,,,,,SBD,Wraps,M,Open,Yes
1,Cedrick Pendleton,,AL,140,137,,33,242.5,260,-272.5,260,175,187.5,-195,187.5,220,235,247.5,247.5,695,,,,SBD,Wraps,M,Open,Yes
DQ,Seth Coker,,MS,140+,144.4,,35,,-220,-220,,175,-187.5,-190,175,237.5,-250,-255,237.5,,,,,SBD,Wraps,M,Open,Yes
1,Rob Engelman,,NC,75,74.2,,49,155,167.5,175,175,115,120,-122.5,120,182.5,192.5,-200.5,192.5,487.5,,,,SBD,Wraps,M,Masters 45-49,Yes
1,David Webb #7,,AL,75,74.5,,64,-125,125,130,130,105,107.5,-109.5,107.5,165,170,172.5,172.5,410,,,,SBD,Wraps,M,Masters 60-64,Yes
DQ,Ronny Poag,,AL,82.5,80.7,,62,-125,-125,-125,,115,117.5,-120,117.5,165,167.5,172.5,172.5,,,,,SBD,Wraps,M,Masters 60-64,Yes
1,Matt Norman,,GA,90,87.1,,42,192.5,200,217.5,217.5,115,125,-132.5,125,232.5,255,263,263,605.5,,,,SBD,Wraps,M,Masters 40-44,Yes
2,Jessie Lindsey,,AL,90,87.1,,42,187.5,200,215,215,125,137.5,-142.5,137.5,192.5,210,-227.5,210,562.5,,,,SBD,Wraps,M,Masters 40-44,Yes
1,Omar Foreman,,NC,100,98.4,,51,175,185,-197.5,185,150,157.5,-170,157.5,205,220,225.5,225.5,568,,,,SBD,Wraps,M,Masters 50-54,Yes
1,Paul Beck,,FL,100,97.8,,57,147.5,155,-165,155,130,132.5,135,135,147.5,152.5,160,160,450,,,,SBD,Wraps,M,Masters 55-59,Yes
1,John Hare,,TX,100,90.4,,60,195,215,230.5,230.5,145,160,165,165,220,237.5,245,245,640.5,,,,SBD,Wraps,M,Masters 60-64,Yes
1,Peter Pauline,,GA,110,109.3,,66,140,-160,-160,140,-110,110,-117.5,110,220,245,-250,245,495,,,,SBD,Wraps,M,Masters 65-69,Yes
1,William Farrell,,OK,110,100.6,,76,100,125,-137.5,125,-80,-90,90,90,168,178,-182.5,178,393,,91,,SBD,Wraps,M,Masters 75-79,Yes
DQ,Marrius Garth,,AL,125,118.8,,46,-265,-265,-275,,,,,,,,,,,,,,SBD,Wraps,M,Masters 45-49,Yes
1,David McCartney,,TX,140,140,,43,225,232.5,240,240,170,-175,-175,170,270,277.5,-282.5,277.5,687.5,,,,SBD,Wraps,M,Masters 40-44,Yes
1,Mason Grogan,,MS,82.5,79.3,,17,200,220,-227.5,220,100,107.5,115,115,245,255,-272.5,255,590,,,,SBD,Single-ply,M,Juniors 15-19,Yes
1,Jonathan Gray,,MS,125,117.2,,21,265,275,285,285,150,-162.5,-162.5,150,250,-260,-260,250,685,,,,SBD,Single-ply,M,Juniors 20-23,Yes
1,Joseph Hwang,,GA,75,74.5,,32,240,260,278,278,130,160,-170.5,160,242.5,-257.5,260,260,698,,,,SBD,Single-ply,M,Open,Yes
1,Chase Callahan,,GA,82.5,80.2,,26,242.5,252.5,-257.5,252.5,137.5,142.5,147.5,147.5,-265,265,-277.5,265,665,,,,SBD,Single-ply,M,Open,Yes
2,Mason Grogan,,MS,82.5,79.3,,17,200,220,-227.5,220,100,107.5,115,115,245,255,-272.5,255,590,,,,SBD,Single-ply,M,Open,Yes
1,Bryan Schermerhorn,,WA,90,87.8,,29,220,232.5,237.5,237.5,150,155,-157.5,155,250,-260,-260,250,642.5,,,,SBD,Single-ply,M,Open,Yes
1,Hardeep Chauhan,,WA,100,98.5,,46,-190,-190,190,190,115,125,130,130,190,210,220,220,540,,,,SBD,Single-ply,M,Open,Yes
DQ,Joshua Porter,,GA,125,118.9,,42,325,335,345,345,-235,-235,-235,,272.5,285,-290,285,,,,,SBD,Single-ply,M,Open,Yes
DQ,Joshua de Leon,,SC,140+,154.2,,28,,365,-387.5,365,-280,-280,-280,,,,,,,,,,SBD,Single-ply,M,Open,Yes
1,Hardeep Chauhan,,WA,100,98.5,,46,-190,-190,190,190,115,125,130,130,190,210,220,220,540,,,,SBD,Single-ply,M,Masters 45-49,Yes
1,Ken Jones #1,,AL,100,99,,65,145,-177.5,-177.5,145,92.5,95,97.5,97.5,-177.5,177.5,-210,177.5,420,,,,SBD,Single-ply,M,Masters 65-69,Yes
DQ,Joshua Porter,,GA,125,118.9,,42,325,335,345,345,-235,-235,-235,,272.5,285,-290,285,,,,,SBD,Single-ply,M,Masters 40-44,Yes
1,Larry Tilley,,FL,82.5,80.2,,69,25,,,25,25,,,25,147.5,160,172.5,172.5,222.5,,,,SBD,Multi-ply,M,Masters 65-69,Yes
1,Kayla Smith,,GA,48,45.6,,23,,,,,50,52.5,-55,52.5,,,,,52.5,,,,B,Raw,F,Juniors 20-23,Yes
1,Briana Negron,,FL,52,51.9,,22,,,,,70,-75,-75,70,,,,,70,,,,B,Raw,F,Juniors 20-23,Yes
1,Lorin Ames,,NC,56,52.8,,14,,,,,40,42.5,-47.5,42.5,,,,,42.5,,,,B,Raw,F,Juniors 13-15,Yes
1,Kayla Smith,,GA,48,45.6,,23,,,,,50,52.5,-55,52.5,,,,,52.5,,,,B,Raw,F,Open,Yes
1,Briana Negron,,FL,52,51.9,,22,,,,,70,-75,-75,70,,,,,70,,,,B,Raw,F,Open,Yes
2,Margie Haddon,,TX,52,51.4,,59,,,,,51,-52,52,52,,,,,52,,53,,B,Raw,F,Open,Yes
1,Emily Lilly,,NC,67.5,66.8,,42,,,,,100,-105,-105,100,,,,,100,,,,B,Raw,F,Open,Yes
1,Monica New,,LA,75,70.2,,39,,,,,55,57.5,-60,57.5,,,,,57.5,,,,B,Raw,F,Open,Yes
2,Danielle Skelly,,OH,75,73,,52,,,,,50,-55,-57.5,50,,,,,50,,,,B,Raw,F,Open,Yes
1,Jennifer Nash,,AL,90,86.8,,43,,,,,100,102.5,107.5,107.5,,,,,107.5,,110,,B,Raw,F,Open,Yes
2,Valeria Anderson,,LA,90,88.1,,47,,,,,87.5,-100,100,100,,,,,100,,,,B,Raw,F,Open,Yes
1,Shannon Ponthier,,LA,90+,121.4,,41,,,,,112.5,-117.5,-117.5,112.5,,,,,112.5,,,,B,Raw,F,Open,Yes
2,Katie Sprague,,FL,90+,135,,30,,,,,82.5,92.5,-100,92.5,,,,,92.5,,,,B,Raw,F,Open,Yes
3,Heather Racine,,IN,90+,125.4,,36,,,,,67.5,72.5,77.5,77.5,,,,,77.5,,,,B,Raw,F,Open,Yes
4,Taylor Hurt #1,,VA,90+,90.3,,24,,,,,65,70,75,75,,,,,75,,,,B,Raw,F,Open,Yes
1,Margie Haddon,,TX,52,51.4,,59,,,,,51,-52,52,52,,,,,52,,53,,B,Raw,F,Masters 55-59,Yes
1,Monica Gillespie,,MO,60,58.5,,54,,,,,-47.5,47.5,50,50,,,,,50,,,,B,Raw,F,Masters 50-54,Yes
1,Emily Lilly,,NC,67.5,66.8,,42,,,,,100,-105,-105,100,,,,,100,,,,B,Raw,F,Masters 40-44,Yes
1,Danielle Skelly,,OH,75,73,,52,,,,,50,-55,-57.5,50,,,,,50,,,,B,Raw,F,Masters 50-54,Yes
1,Sherri Peppo,,LA,75,70,,58,,,,,50,-57.5,-57.5,50,,,,,50,,,,B,Raw,F,Masters 55-59,Yes
1,Priscilla Morgan,,KY,75,72.5,,70,,,,,45,47.5,50,50,,,,,50,,,,B,Raw,F,Masters 70-74,Yes
1,Colleen Beck,,FL,82.5,75.5,,61,,,,,57.5,60,62.5,62.5,,,,,62.5,,,,B,Raw,F,Masters 60-64,Yes
1,Jennifer Nash,,AL,90,86.8,,43,,,,,100,102.5,107.5,107.5,,,,,107.5,,110,,B,Raw,F,Masters 40-44,Yes
2,Keli Hamman,,VA,90,88,,43,,,,,67.5,-70,70,70,,,,,70,,,,B,Raw,F,Masters 40-44,Yes
1,Valeria Anderson,,LA,90,88.1,,47,,,,,87.5,-100,100,100,,,,,100,,,,B,Raw,F,Masters 45-49,Yes
1,Shari Langrall,,WV,90,87.6,,50,,,,,67.5,-72.5,72.5,72.5,,,,,72.5,,,,B,Raw,F,Masters 50-54,Yes
1,Shannon Ponthier,,LA,90+,121.4,,41,,,,,112.5,-117.5,-117.5,112.5,,,,,112.5,,,,B,Raw,F,Masters 40-44,Yes
1,Lucas House,,IA,60,59.4,,21,,,,,112.5,121,128,128,,,,,128,,,,B,Raw,M,Juniors 20-23,Yes
1,Chase Law,,AL,82.5,80.3,,17,,,,,125,132.5,137.5,137.5,,,,,137.5,,,,B,Raw,M,Juniors 15-19,Yes
1,Anthony Woodall,,GA,125,116.7,,23,,,,,210,-212.5,212.5,212.5,,,,,212.5,,,,B,Raw,M,Juniors 20-23,Yes
1,Brandan Liscano,,TX,140+,155.2,,23,,,,,220,-225,-225,220,,,,,220,,,,B,Raw,M,Juniors 20-23,Yes
1,Julio Zavala,,GA,60,59.7,,29,,,,,133,137.5,142.5,142.5,,,,,142.5,,,,B,Raw,M,Open,Yes
2,Lucas House,,IA,60,59.4,,21,,,,,112.5,121,128,128,,,,,128,,,,B,Raw,M,Open,Yes
1,Bill Britton,,SC,67.5,65.9,,29,,,,,90,95,-102.5,95,,,,,95,,,,B,Raw,M,Open,Yes
1,Chase Law,,AL,82.5,80.3,,17,,,,,125,132.5,137.5,137.5,,,,,137.5,,,,B,Raw,M,Open,Yes
2,Dan Keating,,VA,82.5,80.7,,51,,,,,125,127.5,135,135,,,,,135,,,,B,Raw,M,Open,Yes
3,Angelo Riley,,NC,82.5,82.2,,28,,,,,125,135,-142.5,135,,,,,135,,,,B,Raw,M,Open,Yes
4,Gerald Smith #2,,FL,82.5,79,,66,,,,,110,117.5,122.5,122.5,,,,,122.5,,125,,B,Raw,M,Open,Yes
1,James McMillian,,LA,90,87.7,,35,,,,,162.5,170,-172.5,170,,,,,170,,,,B,Raw,M,Open,Yes
2,Randy Fry,,WI,90,87.7,,45,,,,,155,,,155,,,,,155,,,,B,Raw,M,Open,Yes
3,Bobby Brown,,AL,90,89.4,,39,,,,,147.5,-162.5,-162.5,147.5,,,,,147.5,,,,B,Raw,M,Open,Yes
4,Steven Luminais,,LA,90,88.5,,32,,,,,130,140,-142.5,140,,,,,140,,,,B,Raw,M,Open,Yes
1,Millard Peacock,,AL,110,107.5,,45,,,,,185,-192.5,-195,185,,,,,185,,,,B,Raw,M,Open,Yes
2,Bill Wyatt,,AR,110,105.8,,54,,,,,142.5,150,-155,150,,,,,150,,,,B,Raw,M,Open,Yes
1,Wes Murray,,FL,125,124,,29,,,,,182.5,195,202.5,202.5,,,,,202.5,,,,B,Raw,M,Open,Yes
2,Sean Smith #8,,VA,125,120.1,,26,,,,,185,-190,-192.5,185,,,,,185,,,,B,Raw,M,Open,Yes
DQ,Chuck Bell,,IN,140,132.6,,49,,,,,-165,-165,,,,,,,,,,,B,Raw,M,Open,Yes
1,Eddie Hunt Jr,,AL,140+,170.1,,40,,,,,-240,-240,250,250,,,,,250,,,,B,Raw,M,Open,Yes
2,Timothy Mathews Jr,,TX,140+,143.4,,28,,,,,235,-242.5,242.5,242.5,,,,,242.5,,,,B,Raw,M,Open,Yes
3,David Perry,,NC,140+,152.2,,40,,,,,200,210,-222.5,210,,,,,210,,,,B,Raw,M,Open,Yes
4,Seth Coker,,MS,140+,144.4,,35,,,,,175,-187.5,-190,175,,,,,175,,,,B,Raw,M,Open,Yes
1,Keith Derr,,VA,67.5,66.7,,51,,,,,82.5,90,-92.5,90,,,,,90,,,,B,Raw,M,Masters 50-54,Yes
1,Oscar Chica,,,67.5,67.2,,57,,,,,100,-108,-108,100,,,,,100,,,,B,Raw,M,Masters 55-59,Yes
1,Len Bryson,,AL,67.5,66,,82,,,,,65,-70,70,70,,,,,70,,,,B,Raw,M,Masters 80+,Yes
1,Rob Engelman,,NC,75,74.2,,49,,,,,115,120,-122.5,120,,,,,120,,,,B,Raw,M,Masters 45-49,Yes
1,David Patterson #1,,LA,75,73.9,,60,,,,,120.5,-125,125,125,,,,,125,,,,B,Raw,M,Masters 60-64,Yes
1,Dan Keating,,VA,82.5,80.7,,51,,,,,125,127.5,135,135,,,,,135,,,,B,Raw,M,Masters 50-54,Yes
1,Michael Morgan,,KY,82.5,79.8,,60,,,,,102.5,107.5,-110,107.5,,,,,107.5,,,,B,Raw,M,Masters 60-64,Yes
1,Gerald Smith #2,,FL,82.5,79,,66,,,,,110,117.5,122.5,122.5,,,,,122.5,,125,,B,Raw,M,Masters 65-69,Yes
1,Randy Fry,,WI,90,87.7,,45,,,,,155,,,155,,,,,155,,,,B,Raw,M,Masters 45-49,Yes
1,James Poghen II,,OH,90,85.5,,56,,,,,100,-112.5,120,120,,,,,120,,,,B,Raw,M,Masters 55-59,Yes
1,Brandon Tedder,,SC,100,97.3,,41,,,,,142.5,155,-165,155,,,,,155,,,,B,Raw,M,Masters 40-44,Yes
1,Omar Foreman,,NC,100,98.4,,51,,,,,150,157.5,-170,157.5,,,,,157.5,,,,B,Raw,M,Masters 50-54,Yes
2,Grant Garner #1,,TX,100,93.5,,52,,,,,147.5,-156.5,-156.5,147.5,,,,,147.5,,,,B,Raw,M,Masters 50-54,Yes
1,John Hare,,TX,100,90.4,,60,,,,,145,160,165,165,,,,,165,,,,B,Raw,M,Masters 60-64,Yes
1,Jimmy Smith,,AL,100,91,,68,,,,,95,-107.5,-107.5,95,,,,,95,,,,B,Raw,M,Masters 65-69,Yes
1,William Nadzak,,TX,100,99.6,,72,,,,,145,150,152.5,152.5,,,,,152.5,,,,B,Raw,M,Masters 70-74,Yes
2,Larry Soderberg,,IA,100,93.6,,71,,,,,150,-155,,150,,,,,150,,,,B,Raw,M,Masters 70-74,Yes
1,Jeremy Grimm,,IA,110,108,,41,,,,,160,-170,170,170,,,,,170,,,,B,Raw,M,Masters 40-44,Yes
1,Millard Peacock,,AL,110,107.5,,45,,,,,185,-192.5,-195,185,,,,,185,,,,B,Raw,M,Masters 45-49,Yes
2,Robert Morrow,,AL,110,101.7,,48,,,,,117.5,122.5,,122.5,,,,,122.5,,,,B,Raw,M,Masters 45-49,Yes
1,Anthony Ford,,AL,110,107.6,,52,,,,,185,195,200,200,,,,,200,,,,B,Raw,M,Masters 50-54,Yes
2,Bill Wyatt,,AR,110,105.8,,54,,,,,142.5,150,-155,150,,,,,150,,,,B,Raw,M,Masters 50-54,Yes
1,Kenneth Horner,,VA,110,105.3,,58,,,,,130,-140,142.5,142.5,,,,,142.5,,,,B,Raw,M,Masters 55-59,Yes
1,Peter Pauline,,GA,110,109.3,,66,,,,,-110,110,-117.5,110,,,,,110,,,,B,Raw,M,Masters 65-69,Yes
DQ,Chuck Bell,,IN,140,132.6,,49,,,,,-165,-165,,,,,,,,,,,B,Raw,M,Masters 45-49,Yes
1,Michael Lloyd,,GA,140,135.6,,54,,,,,150,-160,,150,,,,,150,,,,B,Raw,M,Masters 50-54,Yes
1,Eddie Hunt Jr,,AL,140+,170.1,,40,,,,,-240,-240,250,250,,,,,250,,,,B,Raw,M,Masters 40-44,Yes
2,David Perry,,NC,140+,152.2,,40,,,,,200,210,-222.5,210,,,,,210,,,,B,Raw,M,Masters 40-44,Yes
3,Chay Wells,,GA,140+,165.4,,41,,,,,160,170,-175,170,,,,,170,,,,B,Raw,M,Masters 40-44,Yes
1,Christopher Summa,,LA,140+,161.8,,51,,,,,150,160,172.5,172.5,,,,,172.5,,,,B,Raw,M,Masters 50-54,Yes
1,Joseph Hwang,,GA,75,74.5,,32,,,,,130,160,-170.5,160,,,,,160,,,,B,Single-ply,M,Open,Yes
1,Bryan Schermerhorn,,WA,90,87.8,,29,,,,,150,155,-157.5,155,,,,,155,,,,B,Single-ply,M,Open,Yes
DQ,Steve Pollock,,NJ,125,113.9,,49,,,,,-260,-260,-277.5,,,,,,,,,,B,Single-ply,M,Open,Yes
1,Ken Jones #1,,AL,100,99,,65,,,,,92.5,95,97.5,97.5,,,,,97.5,,,,B,Single-ply,M,Masters 65-69,Yes
DQ,Steve Pollock,,NJ,125,113.9,,49,,,,,-260,-260,-277.5,,,,,,,,,,B,Single-ply,M,Masters 45-49,Yes
1,Kayla Smith,,GA,48,45.6,,23,,,,,,,,,107.5,115,117.5,117.5,117.5,,,,D,Raw,F,Juniors 20-23,Yes
1,Briana Negron,,FL,52,51.9,,22,,,,,,,,,152.5,-160,-160,152.5,152.5,,,,D,Raw,F,Juniors 20-23,Yes
1,Lorin Ames,,NC,56,52.8,,14,,,,,,,,,67.5,72.5,-80,72.5,72.5,,,,D,Raw,F,Juniors 13-15,Yes
1,Hannah Ivester,,VA,67.5,66.3,,23,,,,,,,,,160,170,177.5,177.5,177.5,,,,D,Raw,F,Juniors 20-23,Yes
1,Kayla Smith,,GA,48,45.6,,23,,,,,,,,,107.5,115,117.5,117.5,117.5,,,,D,Raw,F,Open,Yes
1,Briana Negron,,FL,52,51.9,,22,,,,,,,,,152.5,-160,-160,152.5,152.5,,,,D,Raw,F,Open,Yes
2,Margie Haddon,,TX,52,51.4,,59,,,,,,,,,110.5,114.5,115.5,115.5,115.5,,,117.5,D,Raw,F,Open,Yes
1,Amberly Kuhlmann,,AL,56,55.8,,36,,,,,,,,,150,-162.5,-162.5,150,150,,,,D,Raw,F,Open,Yes
1,Tricia Floyd,,VA,67.5,64.6,,41,,,,,,,,,192.5,197.5,202.5,202.5,202.5,,,,D,Raw,F,Open,Yes
2,Hannah Ivester,,VA,67.5,66.3,,23,,,,,,,,,160,170,177.5,177.5,177.5,,,,D,Raw,F,Open,Yes
3,Olivia Crusoe,,WA,67.5,67.2,,28,,,,,,,,,170,177.5,-180,177.5,177.5,,,,D,Raw,F,Open,Yes
1,Ashley Wallace,,GA,75,73.9,,33,,,,,,,,,160,-170,170,170,170,,,,D,Raw,F,Open,Yes
2,Monica New,,LA,75,70.2,,39,,,,,,,,,132.5,145,150,150,150,,,,D,Raw,F,Open,Yes
3,Jennifer Schwardt,,IL,75,74.3,,43,,,,,,,,,127.5,135,140,140,140,,,,D,Raw,F,Open,Yes
4,Danielle Skelly,,OH,75,73,,52,,,,,,,,,92.5,100,-102.5,100,100,,,,D,Raw,F,Open,Yes
1,Valeria Anderson,,LA,90,88.1,,47,,,,,,,,,182.5,-205,-205,182.5,182.5,,,,D,Raw,F,Open,Yes
2,Jennifer Nash,,AL,90,86.8,,43,,,,,,,,,145,155,165,165,165,,,,D,Raw,F,Open,Yes
1,Katilyn LaBove,,LA,90+,116.6,,29,,,,,,,,,195,207.5,-217.5,207.5,207.5,,,,D,Raw,F,Open,Yes
2,Yejide Kincaid,,AR,90+,138.1,,28,,,,,,,,,155,167.5,182.5,182.5,182.5,,,,D,Raw,F,Open,Yes
3,Taylor Hurt #1,,VA,90+,90.3,,24,,,,,,,,,142.5,150,165,165,165,,,,D,Raw,F,Open,Yes
4,Heather Racine,,IN,90+,125.4,,36,,,,,,,,,140,150,-155,150,150,,,,D,Raw,F,Open,Yes
1,Margie Haddon,,TX,52,51.4,,59,,,,,,,,,110.5,114.5,115.5,115.5,115.5,,,117.5,D,Raw,F,Masters 55-59,Yes
1,Tara Kittrell,,AR,60,58.8,,51,,,,,,,,,117.5,127.5,137.5,137.5,137.5,,,,D,Raw,F,Masters 50-54,Yes
2,Monica Gillespie,,MO,60,58.5,,54,,,,,,,,,-110,-110,110,110,110,,,,D,Raw,F,Masters 50-54,Yes
1,Diann Reschke,,KY,60,58.2,,67,,,,,,,,,87.5,92.5,97.5,97.5,97.5,,,,D,Raw,F,Masters 65-69,Yes
1,Tricia Floyd,,VA,67.5,64.6,,41,,,,,,,,,192.5,197.5,202.5,202.5,202.5,,,,D,Raw,F,Masters 40-44,Yes
1,Jennifer Schwardt,,IL,75,74.3,,43,,,,,,,,,127.5,135,140,140,140,,,,D,Raw,F,Masters 40-44,Yes
1,Evelyn McSwain,,AL,75,74.2,,49,,,,,,,,,117.5,-127.5,130,130,130,,,,D,Raw,F,Masters 45-49,Yes
1,Danielle Skelly,,OH,75,73,,52,,,,,,,,,92.5,100,-102.5,100,100,,,,D,Raw,F,Masters 50-54,Yes
1,Sherri Peppo,,LA,75,70,,58,,,,,,,,,120,130,133,133,133,,,,D,Raw,F,Masters 55-59,Yes
1,Priscilla Morgan,,KY,75,72.5,,70,,,,,,,,,95,102.5,107.5,107.5,107.5,,,,D,Raw,F,Masters 70-74,Yes
1,Sheryl Davis,,FL,82.5,80.4,,44,,,,,,,,,120,125,135,135,135,,,,D,Raw,F,Masters 40-44,Yes
1,Colleen Beck,,FL,82.5,75.5,,61,,,,,,,,,102.5,105,110,110,110,,,,D,Raw,F,Masters 60-64,Yes
1,Keli Hamman,,VA,90,88,,43,,,,,,,,,160,170,-177.5,170,170,,,,D,Raw,F,Masters 40-44,Yes
2,Jennifer Nash,,AL,90,86.8,,43,,,,,,,,,145,155,165,165,165,,,,D,Raw,F,Masters 40-44,Yes
1,Valeria Anderson,,LA,90,88.1,,47,,,,,,,,,182.5,-205,-205,182.5,182.5,,,,D,Raw,F,Masters 45-49,Yes
1,Shari Langrall,,WV,90,87.6,,50,,,,,,,,,155,163,167.5,167.5,167.5,,,172.5,D,Raw,F,Masters 50-54,Yes
1,Jeffery Varnon,,AL,67.5,66.2,,20,,,,,,,,,230,240,-250,240,240,,,,D,Raw,M,Juniors 20-23,Yes
1,Evan Joiner,,GA,90,89.3,,19,,,,,,,,,225,240,-253,240,240,,,,D,Raw,M,Juniors 15-19,Yes
1,Scott Goins,,LA,56,55.5,,60,,,,,,,,,102.5,110,-115.5,110,110,,,,D,Raw,M,Open,Yes
1,Julio Zavala,,GA,60,59.7,,29,,,,,,,,,215,227.5,230.5,230.5,230.5,,,,D,Raw,M,Open,Yes
1,Jeffery Varnon,,AL,67.5,66.2,,20,,,,,,,,,230,240,-250,240,240,,,,D,Raw,M,Open,Yes
2,Hunter Britton,,SC,67.5,66.3,,29,,,,,,,,,167.5,180,187.5,187.5,187.5,,,,D,Raw,M,Open,Yes
1,Jared Daigre,,LA,75,73.7,,40,,,,,,,,,250,-260,-260,250,250,,,,D,Raw,M,Open,Yes
1,Angelo Riley,,NC,82.5,82.2,,28,,,,,,,,,187.5,195,215,215,215,,,,D,Raw,M,Open,Yes
2,Roger Kitchen Jr,,AL,82.5,82.1,,51,,,,,,,,,197.5,207.5,212.5,212.5,212.5,,,,D,Raw,M,Open,Yes
3,Bob Walters,,TN,82.5,76.8,,57,,,,,,,,,185,190,-195,190,190,,,,D,Raw,M,Open,Yes
1,Caleb Thomas,,MS,90,88.2,,27,,,,,,,,,225,235,-240,235,235,,,,D,Raw,M,Open,Yes
2,Garrett Hale,,TX,90,88.5,,26,,,,,,,,,222.5,230,235,235,235,,,,D,Raw,M,Open,Yes
3,Bobby Brown,,AL,90,89.4,,39,,,,,,,,,165,187.5,200,200,200,,,,D,Raw,M,Open,Yes
1,Jeff Ray,,AL,100,98.9,,55,,,,,,,,,267.5,280,-285,280,280,,,,D,Raw,M,Open,Yes
2,Zach Presto,,PA,100,97.5,,27,,,,,,,,,265,277.5,-295,277.5,277.5,,,,D,Raw,M,Open,Yes
3,Caleb Smith #2,,FL,100,97.4,,30,,,,,,,,,272.5,-290,-290,272.5,272.5,,,,D,Raw,M,Open,Yes
4,Eric Levy,,GA,100,99.6,,48,,,,,,,,,260,-272.5,-272.5,260,260,,,,D,Raw,M,Open,Yes
1,Cardell Oliver,,GA,110,105.6,,43,,,,,,,,,325,-337.5,-337.5,325,325,,,,D,Raw,M,Open,Yes
2,Bill Wyatt,,AR,110,105.8,,54,,,,,,,,,-275,287.5,-300,287.5,287.5,,,,D,Raw,M,Open,Yes
3,Millard Peacock,,AL,110,107.5,,45,,,,,,,,,277.5,-287.5,-287.5,277.5,277.5,,,,D,Raw,M,Open,Yes
1,Wes Murray,,FL,125,124,,29,,,,,,,,,305,315,320,320,320,,,,D,Raw,M,Open,Yes
2,Sean Smith #8,,VA,125,120.1,,26,,,,,,,,,255,-272.5,-272.5,255,255,,,,D,Raw,M,Open,Yes
1,Jihan Garland,,VA,140+,147.9,,32,,,,,,,,,317.5,-332.5,332.5,332.5,332.5,,,,D,Raw,M,Open,Yes
2,Seth Coker,,MS,140+,144.4,,35,,,,,,,,,237.5,-250,-255,237.5,237.5,,,,D,Raw,M,Open,Yes
1,Scott Goins,,LA,56,55.5,,60,,,,,,,,,102.5,110,-115.5,110,110,,,,D,Raw,M,Masters 60-64,Yes
1,Keith Derr,,VA,67.5,66.7,,51,,,,,,,,,165,175,182.5,182.5,182.5,,,,D,Raw,M,Masters 50-54,Yes
1,Jared Daigre,,LA,75,73.7,,40,,,,,,,,,250,-260,-260,250,250,,,,D,Raw,M,Masters 40-44,Yes
1,Rob Engelman,,NC,75,74.2,,49,,,,,,,,,182.5,192.5,-200.5,192.5,192.5,,,,D,Raw,M,Masters 45-49,Yes
1,Roger Kitchen Jr,,AL,82.5,82.1,,51,,,,,,,,,197.5,207.5,212.5,212.5,212.5,,,,D,Raw,M,Masters 50-54,Yes
1,Bob Walters,,TN,82.5,76.8,,57,,,,,,,,,185,190,-195,190,190,,,,D,Raw,M,Masters 55-59,Yes
1,Michael Morgan,,KY,82.5,79.8,,60,,,,,,,,,170,175,-180,175,175,,,,D,Raw,M,Masters 60-64,Yes
1,James Poghen II,,OH,90,85.5,,56,,,,,,,,,175,190,197.5,197.5,197.5,,,,D,Raw,M,Masters 55-59,Yes
1,Brandon Tedder,,SC,100,97.3,,41,,,,,,,,,230,235,250,250,250,,,,D,Raw,M,Masters 40-44,Yes
1,Eric Levy,,GA,100,99.6,,48,,,,,,,,,260,-272.5,-272.5,260,260,,,,D,Raw,M,Masters 45-49,Yes
1,Omar Foreman,,NC,100,98.4,,51,,,,,,,,,205,220,225.5,225.5,225.5,,,,D,Raw,M,Masters 50-54,Yes
2,Matthew Stephens,,OR,100,97.9,,52,,,,,,,,,175,185,-190,185,185,,,,D,Raw,M,Masters 50-54,Yes
1,Jeff Ray,,AL,100,98.9,,55,,,,,,,,,267.5,280,-285,280,280,,,,D,Raw,M,Masters 55-59,Yes
1,Jimmy Smith,,AL,100,91,,68,,,,,,,,,-165,165,-182.5,165,165,,,,D,Raw,M,Masters 65-69,Yes
1,Cardell Oliver,,GA,110,105.6,,43,,,,,,,,,325,-337.5,-337.5,325,325,,,,D,Raw,M,Masters 40-44,Yes
1,Millard Peacock,,AL,110,107.5,,45,,,,,,,,,277.5,-287.5,-287.5,277.5,277.5,,,,D,Raw,M,Masters 45-49,Yes
2,Robert Morrow,,AL,110,101.7,,48,,,,,,,,,205,225,-232.5,225,225,,,,D,Raw,M,Masters 45-49,Yes
1,Bill Wyatt,,AR,110,105.8,,54,,,,,,,,,-275,287.5,-300,287.5,287.5,,,,D,Raw,M,Masters 50-54,Yes
1,Kenneth Horner,,VA,110,105.3,,58,,,,,,,,,152.5,165,-175,165,165,,,,D,Raw,M,Masters 55-59,Yes
1,Peter Pauline,,GA,110,109.3,,66,,,,,,,,,220,245,-250,245,245,,,,D,Raw,M,Masters 65-69,Yes
1,William Farrell,,OK,110,100.6,,76,,,,,,,,,168,178,-182.5,178,178,,,,D,Raw,M,Masters 75-79,Yes
1,David McCartney,,TX,140,140,,43,,,,,,,,,270,277.5,-282.5,277.5,277.5,,,,D,Raw,M,Masters 40-44,Yes
1,Christopher Summa,,LA,140+,161.8,,51,,,,,,,,,265,272.5,282.5,282.5,282.5,,,,D,Raw,M,Masters 50-54,Yes
1,Joseph Hwang,,GA,75,74.5,,32,,,,,,,,,242.5,-257.5,260,260,260,,,,D,Single-ply,M,Open,Yes
1,Bryan Schermerhorn,,WA,90,87.8,,29,,,,,,,,,250,-260,-260,250,250,,,,D,Single-ply,M,Open,Yes
1,Ken Jones #1,,AL,100,99,,65,,,,,,,,,-177.5,177.5,-210,177.5,177.5,,,,D,Single-ply,M,Masters 65-69,Yes
1,Steve Reschke,,KY,110,103,,68,,,,,,,,,160,170,177.5,177.5,177.5,,,,D,Single-ply,M,Masters 65-69,Yes
1,Larry Tilley,,FL,82.5,80.2,,69,,,,,,,,,147.5,160,172.5,172.5,172.5,,,,D,Multi-ply,M,Masters 65-69,Yes
