Division,WeightClassKg,Place,Name,Team,BodyweightKg,Best3SquatKg,Best3BenchKg,Best3DeadliftKg,TotalKg,Equipment,Event,Sex
Boys,51.71,1,Brian Villarreal,Geronimo Navarro,48.9,124.74,79.38,140.61,344.73,Single-ply,SBD,M
Boys,51.71,2,Jacob Villareal,Gonzales,50.98,131.54,54.43,120.2,306.17,Single-ply,SBD,M
Boys,51.71,3,Michael Sanchez #12,Hutto,51.07,106.59,63.5,127.01,297.1,Single-ply,SBD,M
Boys,51.71,4,Sinuhe Villafuna,Del Valle,49.35,99.79,47.63,113.4,260.82,Single-ply,SBD,M
Boys,51.71,5,Elijah Hubbard,Elgin,48.72,79.38,45.36,88.45,213.19,Single-ply,SBD,M
Boys,55.79,1,Davion Aldridge,Hutto,54.43,167.83,92.99,192.78,453.59,Single-ply,SBD,M
Boys,55.79,2,Jaydan Martinez,Kyle Lehman,55.43,136.08,79.38,154.22,369.68,Single-ply,SBD,M
Boys,55.79,3,Mikey Gomez,Kyle Lehman,52.16,140.61,77.11,147.42,365.14,Single-ply,SBD,M
Boys,55.79,4,Austin Carrow,Austin Lake Travis,55.7,120.2,83.91,138.35,342.46,Single-ply,SBD,M
Boys,55.79,5,Ulysses Solis,San Antonio East Central,53.8,120.2,65.77,136.08,322.05,Single-ply,SBD,M
Boys,55.79,6,Eric Ramirez,San Marcos,55.11,122.47,61.23,124.74,308.44,Single-ply,SBD,M
Boys,59.87,1,Elijah Gonzales,San Antonio East Central,58.79,181.44,99.79,183.7,464.93,Single-ply,SBD,M
Boys,59.87,2,Leo Calderon,San Marcos,59.24,163.29,99.79,151.95,415.04,Single-ply,SBD,M
Boys,59.87,3,Zeke Martinez,San Marcos,59.28,129.27,90.72,163.29,383.29,Single-ply,SBD,M
Boys,59.87,4,Alex Mata,Lockhart,58.79,140.61,74.84,163.29,378.75,Single-ply,SBD,M
Boys,59.87,5,Jesse Barron,Hutto,59.42,145.15,68.04,165.56,378.75,Single-ply,SBD,M
Boys,59.87,6,Logan Roberts,Buda Hays,59.24,138.35,77.11,147.42,362.87,Single-ply,SBD,M
Boys,67.13,1,Kenny Miller,Manor,66.41,172.37,108.86,201.85,483.08,Single-ply,SBD,M
Boys,67.13,2,Justin Lara,Buda Hays,62.69,183.7,102.06,190.51,476.27,Single-ply,SBD,M
Boys,67.13,3,Eduardo Lizardo,Del Valle,64.23,163.29,117.93,190.51,471.74,Single-ply,SBD,M
Boys,67.13,4,David Montealvo,Seguin,66.32,167.83,106.59,197.31,471.74,Single-ply,SBD,M
Boys,67.13,5,Luis Mena,Del Valle,64.68,170.1,111.13,181.44,462.66,Single-ply,SBD,M
Boys,67.13,6,Alex Ortiz #3,Gonzales,66.32,181.44,111.13,163.29,455.86,Single-ply,SBD,M
Boys,67.13,7,Hugo Perez,Lockhart,65.86,161.03,92.99,197.31,451.32,Single-ply,SBD,M
Boys,67.13,8,Caden Forisha,Hutto,66.86,154.22,99.79,190.51,444.52,Single-ply,SBD,M
Boys,74.84,9,Sam Lawson #2,Seguin,67.22,165.56,86.18,185.97,437.72,Single-ply,SBD,M
Boys,67.13,10,Altany Wilson,Del Valle,65.77,151.95,102.06,181.44,435.45,Single-ply,SBD,M
Boys,67.13,11,Brandon Palomares,Seguin,61.6,140.61,88.45,165.56,394.63,Single-ply,SBD,M
Boys,67.13,12,Trey Elkins,Austin Lake Travis,66.86,147.42,88.45,156.49,392.36,Single-ply,SBD,M
Boys,67.13,13,Julian Mata,Kyle Lehman,64.68,131.54,81.65,161.03,374.21,Single-ply,SBD,M
Boys,67.13,14,Jacob Gonzales,Lockhart,65.77,129.27,68.04,156.49,353.8,Single-ply,SBD,M
Boys,67.13,15,Will Reyna,Geronimo Navarro,61.6,106.59,79.38,142.88,328.85,Single-ply,SBD,M
Boys,67.13,DQ,Jacob Esquivel,Seguin,60.33,,,,,Single-ply,SBD,M
Boys,67.13,DQ,Sam Muniz,San Marcos,66.5,,,,,Single-ply,SBD,M
Boys,74.84,1,Mark Saldana,San Antonio East Central,73.3,190.51,131.54,222.26,544.31,Single-ply,SBD,M
Boys,74.84,2,Justis Owens,Hutto,72.67,213.19,113.4,215.46,542.04,Single-ply,SBD,M
Boys,74.84,3,Albian Leyva,San Marcos,74.03,188.24,99.79,210.92,498.95,Single-ply,SBD,M
Boys,74.84,4,Cole Ballard,Hutto,74.21,192.78,104.33,199.58,496.68,Single-ply,SBD,M
Boys,74.84,5,Robert Holguin,San Marcos,74.12,183.7,99.79,195.04,478.54,Single-ply,SBD,M
Boys,74.84,6,Manny Salazar,San Marcos,74.71,170.1,111.13,197.31,478.54,Single-ply,SBD,M
Boys,74.84,7,Yeremi Hykel,Buda Hays,72.94,165.56,117.93,183.7,467.2,Single-ply,SBD,M
Boys,74.84,8,Marc Pickett,Kyle Lehman,74.48,158.76,131.54,174.63,464.93,Single-ply,SBD,M
Boys,74.84,9,Derek Camero,Hutto,72.21,167.83,90.72,199.58,458.13,Single-ply,SBD,M
Boys,74.84,10,Fred Henderson,Rockdale,71.58,165.56,81.65,174.63,421.84,Single-ply,SBD,M
Boys,74.84,11,Jayce Williams,Buda Hays,69.58,142.88,113.4,161.03,417.3,Single-ply,SBD,M
Boys,74.84,12,Kevin Best,Manor,68.22,151.95,102.06,142.88,396.89,Single-ply,SBD,M
Boys,74.84,13,Angel Luna,Rockdale,72.48,133.81,113.4,145.15,392.36,Single-ply,SBD,M
Boys,74.84,14,Alex Guzman,Rockdale,74.21,145.15,65.77,174.63,385.55,Single-ply,SBD,M
Boys,74.84,15,Peyton Blake,Elgin,69.04,113.4,61.23,129.27,303.91,Single-ply,SBD,M
Boys,74.84,DQ,Greg Rivera,Lockhart,74.84,,,,,Single-ply,SBD,M
Boys,74.84,DQ,Joel Hinojosa,Seguin,70.03,149.69,83.91,,,Single-ply,SBD,M
Boys,74.84,DQ,Matt Bates,Hutto,74.66,192.78,,,,Single-ply,SBD,M
Boys,89.81,1,Isaac Mendoza,San Antonio East Central,82.28,231.33,145.15,235.87,612.35,Single-ply,SBD,M
Boys,82.1,2,Robert Llanas,San Antonio East Central,79.29,224.53,120.2,219.99,564.72,Single-ply,SBD,M
Boys,82.1,3,Will Grear,Del Valle,79.38,215.46,131.54,208.65,555.65,Single-ply,SBD,M
Boys,82.1,4,Ashton Williams,San Antonio East Central,80.65,213.19,124.74,215.46,553.38,Single-ply,SBD,M
Boys,82.1,5,Tiki Mondragon,Kyle Lehman,80.1,195.04,138.35,199.58,532.97,Single-ply,SBD,M
Boys,82.1,6,Breon Kelley,Manor,81.83,183.7,102.06,235.87,521.63,Single-ply,SBD,M
Boys,82.1,7,Grant Schlaht,Lockhart,78.38,195.04,124.74,195.04,514.83,Single-ply,SBD,M
Boys,82.1,8,Devin Norman,Lockhart,80.74,183.7,117.93,183.7,485.34,Single-ply,SBD,M
Boys,82.1,9,Gabe Flores,Buda Hays,80.01,170.1,117.93,181.44,469.47,Single-ply,SBD,M
Boys,82.1,10,Prudy Calderon,San Marcos,81.37,165.56,95.25,185.97,446.79,Single-ply,SBD,M
Boys,82.1,11,Rene Velasquez,San Marcos,81.96,170.1,99.79,167.83,437.72,Single-ply,SBD,M
Boys,82.1,12,Alex Rivas,Seguin,81.78,147.42,108.86,158.76,415.04,Single-ply,SBD,M
Boys,82.1,13,Nick Cruz,Lockhart,75.3,145.15,86.18,165.56,396.89,Single-ply,SBD,M
Boys,82.1,14,Luis Rodriguez #7,Geronimo Navarro,79.2,129.27,86.18,142.88,358.34,Single-ply,SBD,M
Boys,82.1,15,Josh Orr,Elgin,75.93,113.4,56.7,131.54,301.64,Single-ply,SBD,M
Boys,82.1,DQ,Blake Dollar,Austin Lake Travis,81.92,,,,,Single-ply,SBD,M
Boys,89.81,1,Josh Mercado,San Marcos,89.81,247.21,158.76,251.74,657.71,Single-ply,SBD,M
Boys,89.81,2,Joseph Castillo,Seguin,85.73,208.65,136.08,204.12,548.85,Single-ply,SBD,M
Boys,89.81,3,Jared Leal,Geronimo Navarro,83.1,204.12,122.47,215.46,542.04,Single-ply,SBD,M
Boys,89.81,4,Trent Schauer,Gonzales,86.64,190.51,122.47,208.65,521.63,Single-ply,SBD,M
Boys,89.81,5,Preston Ellison,Buda Hays,85.73,195.04,117.93,183.7,496.68,Single-ply,SBD,M
Boys,89.81,6,Matt Reyes,Buda Hays,86.91,201.85,90.72,201.85,494.42,Single-ply,SBD,M
Boys,89.81,7,Demetrius Lino,San Antonio East Central,88.18,188.24,97.52,204.12,489.88,Single-ply,SBD,M
Boys,89.81,8,Jonas Nava,San Marcos,89.22,170.1,83.91,204.12,458.13,Single-ply,SBD,M
Boys,89.81,9,Zach Montelongo,Rockdale,83.73,170.1,106.59,147.42,424.11,Single-ply,SBD,M
Boys,89.81,10,Stone Sahd,Geronimo Navarro,87.63,138.35,88.45,147.42,374.21,Single-ply,SBD,M
Boys,89.81,11,Zackary Zaleski,Geronimo Navarro,85.09,111.13,92.99,140.61,344.73,Single-ply,SBD,M
Boys,89.81,DQ,Josh Barker,Rockdale,89.18,,,,,Single-ply,SBD,M
Boys,99.79,1,Joseph Frengel,Austin Lake Travis,95.8,235.87,151.95,244.94,632.76,Single-ply,SBD,M
Boys,99.79,2,Colby Ardrey,Buda Hays,92.26,231.33,151.95,219.99,603.28,Single-ply,SBD,M
Boys,99.79,3,Carlos Chester,Manor,97.98,208.65,142.88,249.48,601.01,Single-ply,SBD,M
Boys,99.79,4,Darius Jones #2,Lockhart,90.36,190.51,127.01,244.94,562.45,Single-ply,SBD,M
Boys,99.79,5,Jose Hernandez #5,San Marcos,99.74,229.06,127.01,190.51,546.58,Single-ply,SBD,M
Boys,99.79,6,Khalid Taylor,Del Valle,97.07,195.04,124.74,204.12,523.9,Single-ply,SBD,M
Boys,99.79,7,Nakia Watson,Manor,92.26,201.85,113.4,201.85,517.1,Single-ply,SBD,M
Boys,99.79,8,Abel Longoria,Kyle Lehman,95.07,197.31,117.93,183.7,498.95,Single-ply,SBD,M
Boys,99.79,9,Ramsey Tijerina,San Marcos,97.84,192.78,104.33,201.85,498.95,Single-ply,SBD,M
Boys,99.79,10,Reid Bacon,Austin Lake Travis,90.9,192.78,111.13,188.24,492.15,Single-ply,SBD,M
Boys,99.79,11,D'Angelo Sutton,Seguin,97.89,156.49,99.79,183.7,439.98,Single-ply,SBD,M
Boys,99.79,12,Rason Sheppard,Manor,92.53,165.56,83.91,188.24,437.72,Single-ply,SBD,M
Boys,99.79,13,Xavian Ellison,Rockdale,91.26,142.88,95.25,142.88,381.02,Single-ply,SBD,M
Boys,99.79,14,Harley Ulrich,Seguin,94.44,133.81,104.33,142.88,381.02,Single-ply,SBD,M
Boys,99.79,15,Carl Furgeson,Kyle Lehman,98.97,113.4,99.79,138.35,351.53,Single-ply,SBD,M
Boys,99.79,DQ,Braxton Moore,Rockdale,99.79,,,,,Single-ply,SBD,M
Boys,99.79,DQ,Curtis Hawkins,Lockhart,98.43,254.01,147.42,,,Single-ply,SBD,M
Boys,99.79,DQ,Shawn Schmidt,Geronimo Navarro,94.44,204.12,,,,Single-ply,SBD,M
Boys,99.79,DQ,Ashton Robinson,Del Valle,94.44,206.38,,,,Single-ply,SBD,M
Boys,109.77,1,Caesar Soto,San Antonio East Central,108.14,308.44,174.63,244.94,728.02,Single-ply,SBD,M
Boys,109.77,2,Jeremy Rodriguez #2,Geronimo Navarro,109.23,281.23,176.9,226.8,684.92,Single-ply,SBD,M
Boys,109.77,3,Lane Springs,Geronimo Navarro,104.96,249.48,142.88,217.72,610.08,Single-ply,SBD,M
Boys,109.77,4,Justin Paul,Hutto,108.77,217.72,124.74,226.8,569.26,Single-ply,SBD,M
Boys,109.77,5,Eric Fowler,Manor,106.5,208.65,124.74,226.8,560.19,Single-ply,SBD,M
Boys,109.77,6,Juan Trevino,San Antonio East Central,106.78,231.33,115.67,199.58,546.58,Single-ply,SBD,M
Boys,109.77,7,Duncan Bauer,Seguin,101.15,197.31,113.4,215.46,526.17,Single-ply,SBD,M
Boys,109.77,8,Jermiah Cantu,Gonzales,108.23,204.12,120.2,174.63,498.95,Single-ply,SBD,M
Boys,109.77,9,John Navajas,Elgin,101.6,136.08,74.84,151.95,362.87,Single-ply,SBD,M
Boys,109.77,DQ,Eliel Salazar,Elgin,102.06,113.4,,,,Single-ply,SBD,M
Boys,109.77,DQ,Ben Watson,Elgin,102.06,124.74,,,,Single-ply,SBD,M
Boys,124.74,1,Seth Seale,Buda Hays,119.48,229.06,156.49,229.06,614.62,Single-ply,SBD,M
Boys,124.74,2,Anthony Cantu,San Antonio East Central,111.04,231.33,113.4,208.65,553.38,Single-ply,SBD,M
Boys,124.74,3,Marshall Crabb,Geronimo Navarro,112.94,188.24,124.74,204.12,517.1,Single-ply,SBD,M
Boys,124.74,4,Marty Rodriguez,Hutto,122.74,226.8,102.06,188.24,517.1,Single-ply,SBD,M
Boys,124.74,5,Brian Prickett,Kyle Lehman,119.75,192.78,117.93,188.24,498.95,Single-ply,SBD,M
Boys,124.74,6,Cristian Hernandez #3,Del Valle,119.29,195.04,124.74,174.63,494.42,Single-ply,SBD,M
Boys,124.74,7,Josh Sanchez,Geronimo Navarro,110.5,208.65,95.25,185.97,489.88,Single-ply,SBD,M
Boys,124.74,8,Matthew Armendariz,Austin Lake Travis,121.93,188.24,115.67,183.7,487.61,Single-ply,SBD,M
Boys,124.74,9,Austin O'Neal,Manor,118.48,183.7,111.13,183.7,478.54,Single-ply,SBD,M
Boys,124.74,10,Jackson Webb,Elgin,112.49,174.63,115.67,165.56,455.86,Single-ply,SBD,M
Boys,124.74,11,Quentin White,Rockdale,118.57,183.7,108.86,142.88,435.45,Single-ply,SBD,M
Boys,124.74,12,Sam Molina,Rockdale,123.83,136.08,90.72,158.76,385.55,Single-ply,SBD,M
Boys,124.74,DQ,Elrod Johnson,Buda Hays,118.02,233.6,138.35,,,Single-ply,SBD,M
Boys,124.74+,1,Mateo Mendoza,Buda Hays,136.08,208.65,138.35,219.99,566.99,Single-ply,SBD,M
Boys,124.74+,2,Josh Urrutia,San Marcos,127.78,176.9,145.15,204.12,526.17,Single-ply,SBD,M
Boys,124.74+,3,Tristan Reyes,Manor,129.36,192.78,124.74,192.78,510.29,Single-ply,SBD,M
Boys,124.74+,4,Julian DeLaGarza,Seguin,128.91,208.65,129.27,154.22,492.15,Single-ply,SBD,M
Boys,124.74+,5,Edward Comacho,Lockhart,132.18,210.92,99.79,181.44,492.15,Single-ply,SBD,M
Boys,124.74+,6,David Brown #11,Manor,134.26,199.58,92.99,192.78,485.34,Single-ply,SBD,M
Boys,124.74+,7,Anthony Herrera,Del Valle,147.87,192.78,122.47,170.1,485.34,Single-ply,SBD,M
Boys,124.74+,8,Anthony Hill,Manor,156.49,142.88,90.72,181.44,415.04,Single-ply,SBD,M
Boys,124.74+,9,Terry Cook,Elgin,128.73,156.49,88.45,158.76,403.7,Single-ply,SBD,M
Boys,124.74+,10,Andrew Diver,Rockdale,126.46,133.81,113.4,142.88,390.09,Single-ply,SBD,M
Boys,124.74+,11,Carlos Morales,Kyle Lehman,136.53,120.2,77.11,167.83,365.14,Single-ply,SBD,M
Boys,124.74+,DQ,Jared Kingsriter,Hutto,140.34,195.04,,,,Single-ply,SBD,M
